<?xml version="1.0" encoding="UTF-8" standalone="no"?>
<!-- Created with Inkscape (http://www.inkscape.org/) -->

<svg
   xmlns:dc="http://purl.org/dc/elements/1.1/"
   xmlns:cc="http://creativecommons.org/ns#"
   xmlns:rdf="http://www.w3.org/1999/02/22-rdf-syntax-ns#"
   xmlns:svg="http://www.w3.org/2000/svg"
   xmlns="http://www.w3.org/2000/svg"
   xmlns:xlink="http://www.w3.org/1999/xlink"
   xmlns:sodipodi="http://sodipodi.sourceforge.net/DTD/sodipodi-0.dtd"
   xmlns:inkscape="http://www.inkscape.org/namespaces/inkscape"
   width="71.488464"
   height="70.60041"
   viewBox="0 0 181.58069 100.87034"
   version="1.1"
   id="svg8"
   inkscape:version="0.92.4 (5da689c313, 2019-01-14)"
   sodipodi:docname="logo.svg"
   inkscape:export-filename="C:\Users\vignette\Desktop\logo_concept_moon_baked_withouttext.png"
   inkscape:export-xdpi="687.55151"
   inkscape:export-ydpi="687.55151">
  <defs
     id="defs2">
    <linearGradient
       id="linearGradient4684"
       inkscape:collect="always">
      <stop
         id="stop4678"
         offset="0"
         style="stop-color:#ff2525;stop-opacity:0" />
      <stop
         style="stop-color:#00090e;stop-opacity:0"
         offset="0.53374535"
         id="stop4680" />
      <stop
         id="stop4682"
         offset="1"
         style="stop-color:#000c18;stop-opacity:1" />
    </linearGradient>
    <linearGradient
       inkscape:collect="always"
       id="linearGradient883-1">
      <stop
         style="stop-color:#ffffff;stop-opacity:0.00925926"
         offset="0"
         id="stop879" />
      <stop
         id="stop911"
         offset="0.90353113"
         style="stop-color:#15aaff;stop-opacity:0.17592593" />
      <stop
         style="stop-color:#93cfe4;stop-opacity:1"
         offset="1"
         id="stop881" />
    </linearGradient>
    <linearGradient
       inkscape:collect="always"
       id="linearGradient823">
      <stop
         style="stop-color:#003b83;stop-opacity:1"
         offset="0"
         id="stop819" />
      <stop
         style="stop-color:#000000;stop-opacity:0;"
         offset="1"
         id="stop821" />
    </linearGradient>
    <radialGradient
       inkscape:collect="always"
       xlink:href="#linearGradient823"
       id="radialGradient825"
       cx="252.17593"
       cy="-162.21452"
       fx="252.17593"
       fy="-162.21452"
       r="254"
       gradientTransform="matrix(2.0013415,-0.05184638,0.00962036,1.4077476,-250.26402,213.33263)"
       gradientUnits="userSpaceOnUse" />
    <radialGradient
       inkscape:collect="always"
       xlink:href="#linearGradient883-1"
       id="radialGradient885"
       cx="79.714455"
       cy="32.401062"
       fx="79.714455"
       fy="32.401062"
       r="90.790344"
       gradientTransform="matrix(1.1481377,-0.00114026,0.00115655,1.1645499,-12.223726,-4.0975692)"
       gradientUnits="userSpaceOnUse" />
    <radialGradient
       inkscape:collect="always"
       xlink:href="#linearGradient4684"
       id="radialGradient885-6"
       cx="79.816696"
       cy="37.940742"
       fx="79.816696"
       fy="37.940742"
       r="90.790344"
       gradientTransform="matrix(1.5945236,0.01137603,-0.01129488,1.5831441,-217.1312,-90.400035)"
       gradientUnits="userSpaceOnUse" />
  </defs>
  <sodipodi:namedview
     id="base"
     pagecolor="#221855"
     bordercolor="#666666"
     borderopacity="1.0"
     inkscape:pageopacity="0"
     inkscape:pageshadow="2"
     inkscape:zoom="7.181199"
     inkscape:cx="29.447596"
     inkscape:cy="35.913187"
     inkscape:document-units="mm"
     inkscape:current-layer="g4609"
     showgrid="false"
     units="px"
     inkscape:snap-page="true"
     inkscape:snap-object-midpoints="true"
     inkscape:window-width="1920"
     inkscape:window-height="1017"
     inkscape:window-x="1358"
     inkscape:window-y="-8"
     inkscape:window-maximized="1"
     inkscape:snap-center="true"
     inkscape:snap-text-baseline="true"
     fit-margin-top="0"
     fit-margin-left="0"
     fit-margin-right="0"
     fit-margin-bottom="0"
     inkscape:snap-others="true"
     inkscape:snap-nodes="false" />
  <metadata
     id="metadata5">
    <rdf:RDF>
      <cc:Work
         rdf:about="">
        <dc:format>image/svg+xml</dc:format>
        <dc:type
           rdf:resource="http://purl.org/dc/dcmitype/StillImage" />
        <dc:title></dc:title>
      </cc:Work>
    </rdf:RDF>
  </metadata>
  <g
     inkscape:groupmode="layer"
     id="layer6"
     inkscape:label="moon 1"
     style="display:inline"
     transform="translate(11.953644,29.896417)">
    <g
       id="g860">
      <ellipse
         ry="89.662514"
         rx="90.790344"
         cy="20.53875"
         cx="78.8367"
         id="path867"
         style="fill:#929292;fill-opacity:1;stroke-width:11.45396233" />
      <path
         inkscape:connector-curvature="0"
         d="m 103.04311,7.3750467 c 0,0 -3.782832,-0.031262 -2.81368,3.8453583 0.96916,3.876621 4.53315,3.376414 5.2522,1.531892 0.71905,-1.844523 1.4381,-5.6273549 -2.43852,-5.3772503 z M 12.036286,-18.729625 c 0,0 -2.3759946,0 -1.938311,2.344731 0.437683,2.344731 1.031681,2.032101 2.219678,1.563154 1.187997,-0.468946 0.562736,-4.157989 -0.281367,-3.907885 z m 14.845018,-4.464293 c 0,0 -1.459019,5.084457 1.724294,3.006462 3.183314,-2.077996 0.707403,-5.747647 -1.724294,-3.006462 z m 65.257901,6.057136 c -1.459017,-0.04421 -2.387483,2.918036 -0.17686,4.509692 2.210633,1.591657 3.227524,-4.421267 0.17686,-4.509692 z m -28.581364,-9.221034 c 0,0 -0.593999,-1.375575 0.656524,-1.313049 1.250523,0.06253 2.000837,0.281367 1.656943,1.563154 -0.343893,1.281786 -1.062944,3.220097 -2.907466,2.063363 -1.844523,-1.156734 0.844103,-0.875366 0.593999,-2.313468 z m 12.93008,-12.509494 c -2.210633,-0.154744 -2.940144,1.768507 -2.47591,2.962249 0.464233,1.193742 4.841288,0 2.47591,-2.962249 z m 0.763148,-11.500552 c -3.470201,-0.187579 -3.376411,1.219261 -3.313887,2.438522 0.06253,1.219259 5.127145,-1.344313 3.313887,-2.438522 z m -31.181465,-2.05063 c 0,0 -10.699468,5.570796 -10.699468,14.501755 0,8.930959 11.230018,12.556398 18.834597,9.019385 7.60458,-3.537014 15.120734,-9.903639 12.733251,-18.569322 -2.387486,-8.665684 -15.474434,-7.869854 -20.86838,-4.951818 z m 75.028906,3.846502 c -3.89072,0.530552 -0.61898,7.383515 1.98957,5.482371 2.60854,-1.901147 1.0611,-5.703435 -1.98957,-5.482371 z m 30.68359,40.1008915 c 0,0 -2.7854,-0.6189774 -2.74119,2.4316971 0.0442,3.0506743 0.44213,6.41083707 3.31595,6.18977377 2.87383,-0.22106381 2.38749,-8.26776927 -0.57476,-8.62147087 z M 113.17235,-36.987263 c 0,0 -12.38018,5.002093 -11.75492,21.759103 0.62526,16.7570109 15.25638,31.012975 22.25931,32.013395 7.00293,1.000417 17.20773,-2.277321 21.2589,-13.1304946 4.05116,-10.8531745 -7.8783,-47.0196724 -31.76329,-40.6420034 z m 42.36783,46.2896584 c 0,0 -9.46152,0.7958276 -9.54994,13.7943526 -0.0884,12.998526 11.58372,12.025846 14.59018,5.128669 3.00646,-6.897174 3.53702,-16.623964 -5.04024,-18.9230216 z m 5.18331,25.5528986 c -1.21926,0.781576 -1.15673,0.562735 -1.56315,2.594834 -0.40642,2.032101 2.21968,1.281788 2.43852,0.531475 0.21884,-0.750316 0.87536,-3.532729 -0.87537,-3.126309 z m -8.59735,2.43852 c 0,0 -3.78283,-0.03127 -3.09504,3.751569 0.68779,3.782832 6.44019,-3.376411 3.09504,-3.751569 z M 3.3380567,15.226894 c -0.088425,0 -3.75807708,0.906358 -2.54222863,4.907605 1.21584843,4.001247 4.17809753,1.127425 4.44337333,-0.420019 0.2652761,-1.547445 1.436912,-4.620225 -1.9011447,-4.487586 z m 4.9739253,10.25734 c 0,0 -5.3055203,9.549935 -2.2106335,21.664208 C 9.1962355,59.262712 18.569322,64.921936 23.963268,59.88169 29.357215,54.841446 32.540525,44.672531 27.146579,31.939283 21.752634,19.206033 12.291123,20.001863 8.311982,25.484234 Z m 32.0984,17.729281 c 0,0 -2.520124,2.033783 -1.016891,4.023352 1.50323,1.989569 2.520122,0.221056 2.475908,-1.105317 -0.04421,-1.32638 -0.08843,-3.492802 -1.459017,-2.918035 z m -5.833417,13.838564 c 0,0 -5.439775,0.625262 -5.439775,10.817027 0,10.191762 7.753243,13.880807 11.129657,13.505649 3.376412,-0.375155 7.878295,-4.877041 7.503139,-11.56734 C 47.394828,63.117116 43.518207,54.300929 34.576965,57.052079 Z M 49.960317,80.39637 c 0,0 0,2.785399 1.459019,2.785399 1.459019,0 1.901145,-1.768507 1.503231,-2.918038 -0.397914,-1.149528 -2.033783,-4.46548 -2.96225,0.132639 z M 82.545056,52.829769 c 0,0 -0.552658,2.36538 0.574764,3.559121 1.127425,1.193742 2.652761,1.945358 3.050675,0.663189 0.397914,-1.282166 0.309489,-3.338055 -1.127422,-4.133885 -1.436911,-0.795828 -2.387486,-0.685295 -2.498017,-0.08842 z m 23.079014,-8.665682 c 0,0 0.24318,5.172882 2.03378,6.189774 1.79062,1.016891 3.4928,1.304272 4.00125,-1.613764 0.50845,-2.918035 0.44213,-6.32241 -1.32638,-6.875071 -1.76851,-0.552658 -4.8855,-0.53055 -4.70865,2.299061 z m 14.92636,9.730422 c 0,0 -3.28262,-0.90663 -2.84494,3.15757 0.43769,4.064201 1.68821,5.908723 3.15758,5.189672 1.46936,-0.719051 2.65736,-2.188415 2.59483,-5.189672 -0.0625,-3.001256 -2.90747,-3.15757 -2.90747,-3.15757 z m 4.53315,24.353938 c 0,0 -2.25094,-0.937892 -2.84494,5.06462 -0.594,6.00251 3.4702,2.438519 4.00167,1.406837 0.53148,-1.031681 3.68905,-5.939985 -1.15673,-6.471457 z M 78.47749,96.887695 c 0,0 -0.17686,3.139095 2.475911,2.7854 2.652761,-0.353703 1.989569,-3.492802 1.105317,-4.46548 -0.884253,-0.972678 -3.31595,-0.972678 -3.581228,1.68008 z m 9.063599,-29.666701 c 0,0 -9.196237,10.25734 -3.094888,26.527602 C 90.54755,110.01886 113.53814,102.50271 115.04137,81.72275 116.5446,60.942795 98.771107,52.542388 87.541089,67.220994 Z"
         style="fill:#777777;fill-opacity:1;stroke:none;stroke-width:2.53999996"
         id="path951" />
    </g>
  </g>
  <g
     inkscape:groupmode="layer"
     id="layer1"
     inkscape:label="Layer 1"
     transform="translate(11.953644,29.896417)">
    <ellipse
       ry="89.662514"
       rx="90.790344"
       cy="20.53875"
       cx="78.8367"
       id="path867-3"
       style="display:inline;fill:url(#radialGradient885);fill-opacity:1;stroke-width:11.45396233" />
  </g>
  <g
     inkscape:groupmode="layer"
     id="layer2"
     inkscape:label="Layer 2"
     style="display:none">
    <ellipse
       ry="89.662514"
       rx="90.790344"
       cy="-50.435165"
       cx="-90.790344"
       id="path867-3-5"
       style="display:inline;opacity:0.40800003;fill:url(#radialGradient885-6);fill-opacity:1;stroke-width:11.45396233"
       transform="scale(-1)" />
  </g>
  <g
     inkscape:groupmode="layer"
     id="layer4"
     inkscape:label="moon"
     style="display:none;opacity:0.53820597"
     transform="translate(11.953644,29.896417)">
    <image
       y="-97.807777"
       x="-69.244041"
       id="image861"
       xlink:href="data:image/jpeg;base64,/9j/4gv4SUNDX1BST0ZJTEUAAQEAAAvoAAAAAAIAAABtbnRyUkdCIFhZWiAH2QADABsAFQAkAB9h Y3NwAAAAAAAAAAAAAAAAAAAAAAAAAAEAAAAAAAAAAAAA9tYAAQAAAADTLQAAAAAp+D3er/JVrnhC +uTKgzkNAAAAAAAAAAAAAAAAAAAAAAAAAAAAAAAAAAAAAAAAABBkZXNjAAABRAAAAHliWFlaAAAB wAAAABRiVFJDAAAB1AAACAxkbWRkAAAJ4AAAAIhnWFlaAAAKaAAAABRnVFJDAAAB1AAACAxsdW1p AAAKfAAAABRtZWFzAAAKkAAAACRia3B0AAAKtAAAABRyWFlaAAAKyAAAABRyVFJDAAAB1AAACAx0 ZWNoAAAK3AAAAAx2dWVkAAAK6AAAAId3dHB0AAALcAAAABRjcHJ0AAALhAAAADdjaGFkAAALvAAA ACxkZXNjAAAAAAAAAB9zUkdCIElFQzYxOTY2LTItMSBibGFjayBzY2FsZWQAAAAAAAAAAAAAAAAA AAAAAAAAAAAAAAAAAAAAAAAAAAAAAAAAAAAAAAAAAAAAAAAAAAAAAAAAAAAAAAAAAAAAAAAAAAAA AAAAAAAAAAAAAAAAWFlaIAAAAAAAACSgAAAPhAAAts9jdXJ2AAAAAAAABAAAAAAFAAoADwAUABkA HgAjACgALQAyADcAOwBAAEUASgBPAFQAWQBeAGMAaABtAHIAdwB8AIEAhgCLAJAAlQCaAJ8ApACp AK4AsgC3ALwAwQDGAMsA0ADVANsA4ADlAOsA8AD2APsBAQEHAQ0BEwEZAR8BJQErATIBOAE+AUUB TAFSAVkBYAFnAW4BdQF8AYMBiwGSAZoBoQGpAbEBuQHBAckB0QHZAeEB6QHyAfoCAwIMAhQCHQIm Ai8COAJBAksCVAJdAmcCcQJ6AoQCjgKYAqICrAK2AsECywLVAuAC6wL1AwADCwMWAyEDLQM4A0MD TwNaA2YDcgN+A4oDlgOiA64DugPHA9MD4APsA/kEBgQTBCAELQQ7BEgEVQRjBHEEfgSMBJoEqAS2 BMQE0wThBPAE/gUNBRwFKwU6BUkFWAVnBXcFhgWWBaYFtQXFBdUF5QX2BgYGFgYnBjcGSAZZBmoG ewaMBp0GrwbABtEG4wb1BwcHGQcrBz0HTwdhB3QHhgeZB6wHvwfSB+UH+AgLCB8IMghGCFoIbgiC CJYIqgi+CNII5wj7CRAJJQk6CU8JZAl5CY8JpAm6Cc8J5Qn7ChEKJwo9ClQKagqBCpgKrgrFCtwK 8wsLCyILOQtRC2kLgAuYC7ALyAvhC/kMEgwqDEMMXAx1DI4MpwzADNkM8w0NDSYNQA1aDXQNjg2p DcMN3g34DhMOLg5JDmQOfw6bDrYO0g7uDwkPJQ9BD14Peg+WD7MPzw/sEAkQJhBDEGEQfhCbELkQ 1xD1ERMRMRFPEW0RjBGqEckR6BIHEiYSRRJkEoQSoxLDEuMTAxMjE0MTYxODE6QTxRPlFAYUJxRJ FGoUixStFM4U8BUSFTQVVhV4FZsVvRXgFgMWJhZJFmwWjxayFtYW+hcdF0EXZReJF64X0hf3GBsY QBhlGIoYrxjVGPoZIBlFGWsZkRm3Gd0aBBoqGlEadxqeGsUa7BsUGzsbYxuKG7Ib2hwCHCocUhx7 HKMczBz1HR4dRx1wHZkdwx3sHhYeQB5qHpQevh7pHxMfPh9pH5Qfvx/qIBUgQSBsIJggxCDwIRwh SCF1IaEhziH7IiciVSKCIq8i3SMKIzgjZiOUI8Ij8CQfJE0kfCSrJNolCSU4JWgllyXHJfcmJyZX JocmtyboJxgnSSd6J6sn3CgNKD8ocSiiKNQpBik4KWspnSnQKgIqNSpoKpsqzysCKzYraSudK9Es BSw5LG4soizXLQwtQS12Last4S4WLkwugi63Lu4vJC9aL5Evxy/+MDUwbDCkMNsxEjFKMYIxujHy MioyYzKbMtQzDTNGM38zuDPxNCs0ZTSeNNg1EzVNNYc1wjX9Njc2cjauNuk3JDdgN5w31zgUOFA4 jDjIOQU5Qjl/Obw5+To2OnQ6sjrvOy07azuqO+g8JzxlPKQ84z0iPWE9oT3gPiA+YD6gPuA/IT9h P6I/4kAjQGRApkDnQSlBakGsQe5CMEJyQrVC90M6Q31DwEQDREdEikTORRJFVUWaRd5GIkZnRqtG 8Ec1R3tHwEgFSEtIkUjXSR1JY0mpSfBKN0p9SsRLDEtTS5pL4kwqTHJMuk0CTUpNk03cTiVObk63 TwBPSU+TT91QJ1BxULtRBlFQUZtR5lIxUnxSx1MTU19TqlP2VEJUj1TbVShVdVXCVg9WXFapVvdX RFeSV+BYL1h9WMtZGllpWbhaB1pWWqZa9VtFW5Vb5Vw1XIZc1l0nXXhdyV4aXmxevV8PX2Ffs2AF YFdgqmD8YU9homH1YklinGLwY0Njl2PrZEBklGTpZT1lkmXnZj1mkmboZz1nk2fpaD9olmjsaUNp mmnxakhqn2r3a09rp2v/bFdsr20IbWBtuW4SbmtuxG8eb3hv0XArcIZw4HE6cZVx8HJLcqZzAXNd c7h0FHRwdMx1KHWFdeF2Pnabdvh3VnezeBF4bnjMeSp5iXnnekZ6pXsEe2N7wnwhfIF84X1BfaF+ AX5ifsJ/I3+Ef+WAR4CogQqBa4HNgjCCkoL0g1eDuoQdhICE44VHhauGDoZyhteHO4efiASIaYjO iTOJmYn+imSKyoswi5aL/IxjjMqNMY2Yjf+OZo7OjzaPnpAGkG6Q1pE/kaiSEZJ6kuOTTZO2lCCU ipT0lV+VyZY0lp+XCpd1l+CYTJi4mSSZkJn8mmia1ZtCm6+cHJyJnPedZJ3SnkCerp8dn4uf+qBp oNihR6G2oiailqMGo3aj5qRWpMelOKWpphqmi6b9p26n4KhSqMSpN6mpqhyqj6sCq3Wr6axcrNCt RK24ri2uoa8Wr4uwALB1sOqxYLHWskuywrM4s660JbSctRO1irYBtnm28Ldot+C4WbjRuUq5wro7 urW7LrunvCG8m70VvY++Cr6Evv+/er/1wHDA7MFnwePCX8Lbw1jD1MRRxM7FS8XIxkbGw8dBx7/I Pci8yTrJuco4yrfLNsu2zDXMtc01zbXONs62zzfPuNA50LrRPNG+0j/SwdNE08bUSdTL1U7V0dZV 1tjXXNfg2GTY6Nls2fHadtr724DcBdyK3RDdlt4c3qLfKd+v4DbgveFE4cziU+Lb42Pj6+Rz5Pzl hOYN5pbnH+ep6DLovOlG6dDqW+rl63Dr++yG7RHtnO4o7rTvQO/M8Fjw5fFy8f/yjPMZ86f0NPTC 9VD13vZt9vv3ivgZ+Kj5OPnH+lf65/t3/Af8mP0p/br+S/7c/23//2Rlc2MAAAAAAAAALklFQyA2 MTk2Ni0yLTEgRGVmYXVsdCBSR0IgQ29sb3VyIFNwYWNlIC0gc1JHQgAAAAAAAAAAAAAAAAAAAAAA AAAAAAAAAAAAAAAAAAAAAAAAAAAAAAAAAAAAAAAAAAAAAAAAAAAAAAAAAAAAAAAAAAAAAAAAAAAA AAAAAABYWVogAAAAAAAAYpkAALeFAAAY2lhZWiAAAAAAAAAAAABQAAAAAAAAbWVhcwAAAAAAAAAB AAAAAAAAAAAAAAAAAAAAAAAAAAAAAAACWFlaIAAAAAAAAAMWAAADMwAAAqRYWVogAAAAAAAAb6IA ADj1AAADkHNpZyAAAAAAQ1JUIGRlc2MAAAAAAAAALVJlZmVyZW5jZSBWaWV3aW5nIENvbmRpdGlv biBpbiBJRUMgNjE5NjYtMi0xAAAAAAAAAAAAAAAAAAAAAAAAAAAAAAAAAAAAAAAAAAAAAAAAAAAA AAAAAAAAAAAAAAAAAAAAAAAAAAAAAAAAAAAAAAAAAAAAAAAAAAAAAABYWVogAAAAAAAA9tYAAQAA AADTLXRleHQAAAAAQ29weXJpZ2h0IEludGVybmF0aW9uYWwgQ29sb3IgQ29uc29ydGl1bSwgMjAw OQAAc2YzMgAAAAAAAQxEAAAF3///8yYAAAeUAAD9j///+6H///2iAAAD2wAAwHX/4AAQSkZJRgAB AQAAAQABAAD/2wBDAAgICAgJCAkKCgkNDgwODRMREBARExwUFhQWFBwrGx8bGx8bKyYuJSMlLiZE NS8vNUROQj5CTl9VVV93cXecnNH/2wBDAQgICAgJCAkKCgkNDgwODRMREBARExwUFhQWFBwrGx8b Gx8bKyYuJSMlLiZENS8vNUROQj5CTl9VVV93cXecnNH/wgARCAMyA+gDASIAAhEBAxEB/8QAGgAB AAIDAQAAAAAAAAAAAAAAAAQFAgMGAf/EABkBAQADAQEAAAAAAAAAAAAAAAABAgQDBf/aAAwDAQAC EAMQAAAB5oejzAAAAAAAAAAAAAAAAAAAAAAAAAAAAAAAAAAAAAAAAAAAAAAAAAAAAAAAAAAAAAAA AAAAAAAAAAAAAAAAAAAAAAAAAAAAAAAAAAAAAAAAAAAAAAAAAAAAAAAAAAAAAAAAAAAAAAAAAAAA AAAAAAAAAAAAAAAAAAAAAAAAAAAAAAAAAAAAAAAAAAAAAAAAAAAAAAAAAAAAAAAAAAAAAAAAAAAA AAAAAAAAAAAAAAAAAAAAAAAAAAAAAAAAAAAAAAAAAAAAAAAAAAAAAAAAAAAAAAAAAAAAAAAAAAAA AAAAAAAAAAAAAAAAAAAAAAAAAAAAAAAAAAAAAAAAAAAAAAAAAAAAAAAAAAAAAAAAAAAAAAAAAAAA AAAAAAAAAAAAAAAAAAAAAAAAAAAAAAAAAAAEiqOuZ1J5iR1ufOeZkXyk1G6xVQ8pSqKlCHhPSq9F 2s52L1i0cTj3ES7knQV3SID3zpAAAAAAAAAAAAAAAAAAAAAAAAAAAAAAAAAAAAAAAAAAAAAAAABL uuc8/aX3vCYso5SESAAAAAAAAABhW2q0crB7iN2jkFvVd64iwAAAAAAAAAAAAAAAAAAAAAAAAAAA AAAAAAAAAAAAAAAA2X9FPe2DLcOcgAAAAAAAAAAAAAANO5Ln6jt4/avHrCv0VCwAAAAAAAAAAAAA AAAAAAAAAAAAAAAAAAAAAAAAAAZwwtLGzz217DhYIDAzwiaiVhoG73QJe+t9LJp3AAAAAAAAAAAA Css0xxevsuc1VgDtAAAAAAAAAAAAAAAAAAAAAAAAAAAAAAAAAAAAAAn1aen255LhzkAaDyIAAAAC wr5BLBE1zRkAAAAAAAAaT3bWbyYACipO4q9Febe+aagAAAAAAAAAAAAAAAAAAAAAAAAAAAAAAAAA AC0qdH6x3CkgAY18iMAAAAANurcTQAAAAAAAAANO4Vm6TkZAAAg8v20LtXlGWOuoAAAAAAAAAAAA AAAAAAAAAAAAAAAAAAAAAmVbumxyx3CkgAAQdWeAAAAAAlxrEA8xj4E4AAAAAABjpJCIJaNtNgAA AIPLdvV9682NVQAAAAAAAAAAAAAAAAAAAAAAAAAAAAAAB6bes0Tcdw5SAAABD0WFeAAAAGUw92AB pzzAAAAAACLhpAAANsmCLNElgAAFDS9vy2msEaKgAAAAAAAAAAAAAAAAAAAAAAAAAAAAAL2t6zhb 0ZbAAAAANO4V2NlqIST4R0nYQpEr089AjyAAAAAAABGkVx4AAAABt1Cy9hTQABq2pcXr6Tm9vMLg AAAAAAAAAAAAAAAAAAAAAAAAAAABbVW8sw9AgAAAaY5OAAAAAAxy8K6ywzAAAAAAAI8TfoAAAAAA EqKLNhmAAOW6mN0jkHvm2gAAAAAAAAAAAAAAAAAAAAAAAAAAAGXYU1/lsHCwwM2GYABGxlgAAAAA AAAAAAAAACvw98AAAAAAANs6ssDMAAHO1PY8frr4O1QAAAAAAAAAAAAAAAAAAAAAAAAAHvlpVfbj D0CCNJ8I8nz0AAAAAAAAAAAAAAAR5GsjTY0kArGWIAAAAAAAkR8ixAAA5zo4t45EbqAAAAAAAAAA AAAAAAAAAAAAAAAAOr5vsc9gzWAAAAAAAAAAAAAAAAAAAAAg6pEcAAAAAAAAsM48gNWRmADk4fQ8 9toHSAAAAAAAAAAAAAAAAAAAAAAAAALq+hTcNwpIAGcqZIOelY9GcxrmzSswlQzFN0G3y1iEH25r CElekROjnuyywKVI3EFIEdv2kNNhAAAAAGmFZ1p4AAAAAAACTKiSytPCxy17ADVxnccporCGmoAA AAAAAAAAAAAAAAAAAAAAADZrsaunGDoAABeMJZomacyjsYeZPgS9IbPCRHxzJVHd1RYaZlWWcNpJ lbaVJbRpkUl6YFgac6y4NdVPqTwAAAACLKxK4AAAAAAAEiXGkkHVY6zPMAFHeQrxyg3UAAAAAAAA AAAAAAAAAAAAAAAAXtF1HKbAY7gAAWdlzfpu6PlJRaUt1NOf3XYpPboU3l0KVdCmxuIxB8sMiuWI rlpDNCXgaFnoIcW+rSpAAAAABFjWcA1gAAAAAAnbfPQAABjklxHkmNu5hYAAAAAAAAAAAAAAAAAA AAAAA7Hj+2z29GawAAAyNnQ47wYGbUNrDMMNBKRRFjyxCWWwpc770otlvHK7G0FXquRXZzqsgAAA AY5RTzOILPH30rsbCCYgAAAAb9NgZAEckIWRLY5AHM1t1S7eYdAAAAAAAAAAAAAAAAAAAAAAAG7s uS63LYOFgDTsMgLis6Y9ix6YkxvABdWUCeQaG8owABLiTS/BCoLeoAAAAAGdpanJrapGnd6VeU4Z gY7705ywvYZEjRsinTIYAZ2RonXcg5nT1fLlfpADOfWyiSCn5/pea2UDrAAAAAAAAAAAAAAAAAAA AAAAE7quW6nJYONkeREI+7TKJILjdReAAAHRStW0rKa0qwACPbVN+WoKSulxAAAABKi3hYAr6O40 mNzmMOa6jnyHv1dGZbWJErY+B1GUWUecx1EU5TZtyNvRa955FjbCw5rouKNAAG3VmWAK7mOq5XXU O1QAAAAAAAAAAAAAAAAAAAAAALDqOW6nJYONmGYiygEI3atAkSK8WaLKGWO46X0KKBLiAADoee6c 2g5nTliAM8Lcz2zRArehqiq6iivwCBPABznR8wT7iPIEGdVFQCR0nJ9SZ4Z6jmLeq6czMDn7Sj8N tPPgAADPDeTAQeV6nltVQ71AAAAAAAAAAAAAAAAAAAAAAAm9Xx/YZLBxsABGi5YgACVFFnYVl4WZ 4c1pyxAAPep5jqRjlrOXAAtKsdZq5rEuKrAXFpElgHlThHOiA5fqOYOm907hV2mg5p74e9TUXIrp /OG6/p7gad3hyiTNItJ3HFkcACdGnAFbzPRc7roHaAAAAAAAAAAAAAAAAAAAAAAAM+14ftM1tgz2 AatsYigAAA3dlyfZjVthnPgAA39Lz3QjVt1nLgAAAA6bdDmCqk0B5ngOr9q7Qc/e0Rtu+Tml+iSj VpmazPGBVkiCE6+5S8J4DXUGdTkK/Cz1EHbK2HnoAUlFbVO2gdIAAAAAAAAAAAAAAAAAAAAAAAdZ yfQ8ZtxkuAhzIZoAAAJxdW4K2ypStAABL6Hm+kGGY5NJjAAHq8ilYDObXjPAAG7SMsQAe+DLEAAA N+yIMsQAIeJOBF9yzNh4crCzw38wsAAAAAAAAAAAAAAAAAAAAAAAWtVJo68YegCHMikYAAzNnY65 YA5y/wCYPDEyaN4Bn1PJ9QbARKDqtRzC21lbLsZ57zl9zAAAAAAMArxZtW0AAAAAAAhbZAAARpNT aOdG+gAAAAAAAAAAAAAAAAAAAAAAAAHY76i3wXCstG/ErgAOm5nujaAYldTbdQjSfCBYR5AAu6Ta dOxyAABDIVZ74AAAAANezwrQSZUaSAAAAAAAAAAOa6Ti+1cBrqAAAAAAAAAAAAAAAAAAAAAAAABO 6rh+yzW3DPYCDqnQQB0/MDv3Kbjo+fq8iQAAAADfec4Osc5vLzyhiltUYgAAiyDIAAAEePYDHIAA AAAAAAAAK7mLSr20DpAAAAAAAAAAAAAAAAAAAAAAAAAC9ot1HZPPcPQBCm4lczwAAPbGPJBCJfle LNXzTMAAAAAAAFZI2jcAAAAABWz68ynV842gAAAAAAYZ01oosTfQAAAAAAAAAAAAAAAAAAAAAAAA AADo7XkOux29HKwGMOcKxYYkGTIyBiRo4APfBY5QpoAAAAAAAAPD3CNoJeEcSdsEWaDMMgY11npI VhqkAAAAAAAHnHXfPaqh3qAAAAAAAAAAAAAAAAAAAAAAAAAAA6LndlHaMM8XQIAAANG+MRQAALKt nG0AAAAAAAGMH3WAAAM8BZexJYAAAAAAAAxyorRU6jdQJAAAAAAAAAAAAAAAAAAAAAAAAAAAAW/Q 8P1WW04cLAAAI8jUQQAAJkOYbwAAAAAAI0iuPAAAAALGulkgAAAAAAAEbkZkLZQOsAAAAAAAAAAA AAAAAAAAAAAAAAAAAAN+hDtc+Z6bHcOcgAAV2MuIAALCHPAAAAAAAI8TdpAAAAAG7TsJ4AAAAAAF JN5bvXwaqgAAAAAAAAAAAAAAAAAAAAAAAAAAAAAALyjUdwqrXFcIkABDmCsTdJo93yBmGj3TkSgA AAAAV2IAAAAANmvaTgIcmvN02sswAABH2cp0jVrNlAkAAAAAAAAAAAAAAAAAAAAAAAAAAAAAAAB7 03Me857dW2WOwRIAAAAGv3MAAAAAPPRWAAAAAAb9EskA1QZ0Myn69gAAwcv0jyGa6BYAAAAAAAAA AAAAAAAAAAAAAAAAAAAAAAAAB70XOKO4UN9juFZAAAAAAAAAAArsd2kAAAAAWMSaAAAANOvmOsbI hqoFgAAAAAAAAAAAAAAAAAAAAAAAAAAAAAAAAAAACfAVdps43o8tp45WAAAAAAAAAI+kkwbKCawA AACUbswAAGEs6qBV965YmmoAAAAAAAAAAAAAAAAAAAAAAAAAAAAAAAAAAAAAAAFrf8Xs4z2imt81 shWQAAAAAAIeiwwM2YrsbCGawAGUkwlgAAQ6HpFvz+ppqHSAAAAAAAAAAAAAAAAAAAAAAAAAAAAA AAAAAAAAAAAAAG7Sh0FtxOzhbtFBa8ZlCkgAAAAAAAatckRs9wAGEs1VUdI6CkrneodYAAAAAAAA AAAAAAAAAAAAAAAAAAAAAAAAAAAAAAAAAAAAAAAl2NGo66Vw+zlbtHMTOc3atk0SWOUSEAABqltQ Y1ot3PQrx1UDmnRZ12LrULAAAAAAAAAAAAAAAAAAAAAAAAAAAAAAAAAAAAAAAAAAAAAAAAAAAAAG zWhvzioS0QScNI98JBIAAAAAAAAAAAAAAAAAAAAAAAAAAAAAAAAAAAAAAAAAAAAAAAAAAAAAAAAA AAAAAAAAAAAAAAAAAAAAAAAAAAAAAAAAAAAAAAAAAAAAAAAAAAAAAAAAAAAAAAAAAAAAAAAAAAAA AAAAAAAAAAAAAAAAAAAAAAAAAAAAAAAAAAAAAAAAAAAAAAAAAAAAAAAAAAAAAAAAAAAAAAAAAAAA AAAAAAAAAAAAAAAAAAAAAAAAAAAAAAAAAAAAAAAAAAAAAAAAAAAAAAAAAAAAAAAAAAAAAAAAAAAA AAAAAAAAAAAAAAAAAAAAAAAAAAAAAAAAAAAAAAAAAAAAAAAAAAAAAAAAAAAAAAAAAAAAAAAAAAAA AAAAAAAAAAAAAAAAAAAAAAAAAAAAAAAAAAAAAAAAAAAAAAAAAAAAAAAAAAAAAAAAAAAAAAAAAAAA AAAAAAAAAAAAAAAAAAAAAAAAAAAAAAAD/8QAKRAAAgECBQMFAQEBAQAAAAAAAQIDABEEEBIgMBMx QBQhMjNQYCIjoP/aAAgBAQABBQL/ANCYikNDCy0MGaGDSvSxV6eKuhFXRiroxV0Iq9NDXpI6ODFH CPRw8oogj+qWKRqXBmhhYhQVV8EwRGmwa02GlWiCP6NUZ6TCGlhjXyCoNPhENPh5F/n0gkekwqL5 zxI9PhCKII/mo4Xeo8MifhMivUmEIoi38sqM5jwoH4zxI9S4dk/lIsMWpVCjcWArqVrNazWs11Kv 5kuGVqZCh/j1UsYsOE3lgKLE8CtfzHRXEsDR/wAdHE0hjjWMbmfjU3GTml7+FrG6bDfxkMBkpVCj c7W5E75ECgAPCc+1IffbNhw9EEfxMEGvgJsORfl4ri4pO+6aESUQVP8ADQQa+GQ8qd/GKg0Bbgmh EgIKn+Egh1nhb5ciDO9qDA+bPCJARb+DhiMjAADhbvxgX2Sd1+XMSBXUrqGuoa6lahxYiHX/AASI XZECLxOPfjUW2Fb0FtzF94YigwPDiYf4GCLprxsLjhApVt4bNfiV+GeLpt+9hYuZlvRFt4SgLeG5 5Fa3A6B1ZSrfuQx9R/A0CunXTNdOtAq2zqeAeZWtwYmLUv7kMfTTyCbDwJOdG4MRHof9rCx3biY2 oMecKB4D9+dTcbpY9afsgXKLoXicUq+ee/Opsd+Kjs37GEj99jG1Kb/rqbjdImtD7frgXMaaF2SV H+C5pSb+Ih99+KSz/rYVLv8AjsL0EN8z38AcEya4/wBbDppj/Mb5eCvbfOmiT9SNdT/myeFH2ouB QYHbi1/z+pg1994BNGFwKWJ2plKmkQuWGk5JFqqSIpSIXLpoOxEZ6kiMfhv28GPYO2brqX9TDrpi 34Ye0/1xrqavsmnUCOHXRvdYGYBCXce2IcGoY9AnBEiRM1SRGOlgZlKEOR00xJ/ykbPRipIy7SRl CyFaSIsDF7ebH3zX47MQumX9JRqbgw3wxHwgSyt7LD9mJ+EItHGgeSSXTJhxclLviLaXOmNAZHlF TsCWOkR2aZyokbVJJJ/iLDPS/fIup3s8uINkgYlJLa+Nx4MeTd6Xtsxi/p4UXl4MN2kTXWsdST4Y cf7xLXbqDpYZhUgjUwMugTAyTlbFo2SIqsrEAa16mIYWw7AFxFcyf9DokQdOGo5P+ssoURvpdwki 60iXkIuPAjyIvWgbsQt4v0sGOHDH/UjhAj2k70xSIWZj0JDXppK9NJXpZK9LJXpnr0z16Z69NJXp mr0z16Zq9M9emavTNXp2r0zV6Zq9K1elavTGpI9HK48BO3ARcfpYYWi4SSck6hoQDiJArrpXWXR1 VBWZCOourWmmNkus4JSQKgdTXWSwdDWL+XKwt5MotJ+jGLR8SIWKIFHFODqVSzxKWLRuToKnpu1W kpRIjJrNGN9GiQN0XtELTYrvwk2rqUHyIvRFuVB78WKH/X9Ad+IC5jTQuVwK6iV1I6DKciQo60dd aOutHTvE4BgCiSFQJUNe2RNh1o660VdaOutHXWjrrQ1O4Y8Mm0i9EW5ALDMvWs1roG+zGd/0I/s4 sOmTyqlNK7bMN8axH17oR/0yn+vk0tsce1D32EXpcLK1DAivRRVJhFVdyLXRkpkdcma+wG2zGfH9 CD7dusUCDmi6m7VLNbdh/rrE/DdhSGkyxPJDFliFGwpQAGaoXKQquUkoSjLiXPpsQ1PBImwAmooS xSNUzxK6G2xnPF/X+hhvu2Ock+WWGX2mk0jdD9VYnttkrA54n58USamyxPwqKHVQUCiAQw0tSIXK qFFTSaBEmtgAM58Ppbp1oFRoXKqFBIAhk15Y0/72r8ssV9X6GG+7ZJ3qMcafCsT32yVgx/xym+zi w62XLFVDFfZP9gFzGmhaJtTtqYEgxSaxlMt46AJKJoWsS1YcWRmCiRy7bR3yxP0/oYX7thF60bC4 rWa6lBgd+I+e6AWiyk+exVLEYYV6eOvTx1LFooe5AsMmTXLsl+zDLniDaPKNtL5N8aw6ZyteTrxg TylxuXvliPp/Qw33cDNfar5x+75TfZuj+GR24YbMSagF5OB/nELR5YnYvxqQ/wCALkCwomwybtuT vlifq/Qw/wB29zvRssOP+mUnz3DtR7bcO4GRdRTYmiSaww9tnU1y5t8h2yxI2D2FYlrLALyZSfDK ODqUws21B7ZYr6v0Ivs3ngU3GGH+cj32r8sn+G652Q/XnNLeofszf5Rm6ZSJrQgg1BH70TapG1th u+XemicGPD17KJPlsUX2Yv4foL33P24EPvGLJT+ybo/syf4cUf15Ty2yU2Oc4tJBJp2PGjUII8iQ Klm15QNaTbPLeiL0RbMLegLbMYf0k912ycMCa5cp/aPdD9uT/DigYFKlk0DOCXIkCpnDtUc7LSzR mrg5FlFNiFpnZtkUwYZFgtST32aBWkbsWf8Af6MBvFtfvwYSPSmWK7boftyYXXiViteoeiSdokcU STuueASOK60lXvwSVHniDeX9HBn/ABtfvvgi6jZ4n57ovszlXS+2BbJifn5ztS98mW9Kts2N2/Rw h/3tfvuRC7RxiNc5TeTcPY5yxawRbZFHrNSm8nJqFah4JU3VbbpTaP8ASibTJtk3KpYwxCNc2Nhk TYB77UN1zdFejhq9M1Lh1GTnSnI3bJD7eNi2/wAfpxtqTY/bbhIrLsxDe2UlL32YZrrwYh+VvjlH 4+Ka8n6eEb/Ow9tqfDMmwdtTZhLHYrFWVw67pZdHgx+MfamOpv08O2mXaw99mFmBXI2FST9Q8SOU KSq+z2FPiBRN+dlvWk0BYeLiW0x/qxtqTY49tq4uUV62Snld6TtyCaQV6mSvUSUWY79fuDf8HFPd /wBXCPuYW47itQ8SPvzdqU3HOzaVJuf1Y20P32kXoi25FzL3zBIoNfwSt6Vbcrdsk+PPi39v18K9 12kXoqRsVM3O3tQN/FLAV1K6hrqUHG09sl7cxNhI+t/14n0Pv0itAqwGZ7bkPv4ZfcGIoHYy3oJ4 GKksv7OFkuvG/beO3gE0TfgBt4hIAdtbfsoxRlYMOKTgTt4DG/Eh8PFSfuYWWx4pOCPtzueQH28C WTpoTc/uQS9ReF+29O3lx+DPL1G/djcoysGHCfbevbmc+3InfnxUv8Bh5tB4XG5Rc879+Re/NPL0 1/gcNNxMttqi2Tm1Kb8p78i982eg54ZJAiuxdv4LDz6uIoK0GunQAGb94/KX5ZN24WYKJZDI38H2 qCfXzst6Vbch7cqd8n7UoudzMFE0pkP8KDaoJw/5Meb9rGlFtzMFE0xkP8RBiNXlnvyD2HC7hBLK ZD/FQ4nyn78aD34ZZVjDyM5/jIpylKwceO49uNRYcE2JC0SSf45HZDFiFfxXatZruGFjwovAzBRL iS38nFiStK6sPCk70vYi/Cq8EuJVad2c/wAorFTHixQIPgkA1oGZF6KkbbUE3yTIlSTu/wDMpI6U mLFAg+LoFdOunWgb3njSnxLt/OqzLSYs0k0b+USFp8Wgp55H/olmkWlxlLNE3iF1WmxUYpsVIaJJ /pw7ClxUooYyhioqE0Rq44TIgo4iIUcWlHFvRmlb+x1NXVkrrS115a68tdaWuo9XP/sR/8QAHREB AAMBAAIDAAAAAAAAAAAAAQBAUBEgMGCAkP/aAAgBAwEBPwH7KcnJyc8OTk5E0gnPbyJOZodgUuRM oKvOxMcOwLCYoQLSYYQLiYQXkwAwG8YKXgwm4YaXDES2GI2jFS0b5jNkxmyYzZMZsmM2TGbJvnwA cRtmI2xw26OEt0wW+OAuAN5cEYPbi4YwbS4owbC448g1lyhg0li5owfcs7ojBnfPs7FnfwS//8QA JREAAgIDAAEEAgMBAAAAAAAAAQIAAxFAUEESMTJRISITMIAg/9oACAECAQE/Af8ASZIENqCG/wCh Da8/kf7nqb7nqaB2gseC54LvsQWIYD0TYojXMfaFif7AzCLd9wMD7c1nVY1rHRBIi3H2MBB9uSTi Pb4EJzqBiPaJaD78ckAZMewtsV2+DxSQBkx3LHarswcGA54ROBmO5Y7lVmPweFa+TvVP4PAtfxvg 4iN6hvMcDMJyc8Cp8NvXNk44VTZXG4xwMwnJ4VZw25cfHErOV27Dl+JQfG0xwueLWcONq04TiiKc jZv41Z/QbNx/PGq+Gzf8+NT8dm/58an47Nw/bjU/DZv41Qwg2bhlOMowNlxlTxUGWG24w3EpGTnb uHniVDCbbjKw/jhIMtAMblq4bhUrgZ3XXKwjgIMmAY3rU8jgVJgb5GY6ek71SeTwWUEQgg4O5Wnq MAxwnQMIQQcHaRCxgGBxHQMIykHYSsmAY4xUH3j1EaoiVeTAAOS9QPtCpGktbGKirzCAY1IPtCjD +0DMFTGLUo6JrUw0/RhqeFGEx/wAYEcwUsYKV8wKB7dfAnpB8T0rPSJgf7X/AP/EAC0QAAECAwcE AwEAAgMAAAAAAAEAAhARIRIgMDEyUHFAUWBhIkGBkQOgQmKh/9oACAEBAAY/Av8AYT0mFXrUYaVo C0BaAtC0r7VHrMLSqjyqjV8nLuqADodKo5d+FXyP4hfIqjeoqF8aLKfj+SrXrqhfGqqPGvXddzsV QvhVV8WkApuqdmqF3Hik3UCkBtM20KkR4hIKbqnbJELuPD6X6Y0uqtM/nhk/+KkNxm3NV8JtOy6U df7Uj4Padlu3tSPgszpwjt3/AGUvA/SkMI9COjyw7Qz8CkFIbVTobbf3wH3ulcH1v9s/nTV6SXSE FEHffX30WcM9stDMb77+95lgejvdrt4ERvQAQbiV689Ra77zb8EIUt3kg26Ed/td93n28GI3ce9t PVHdWjwgO7bq52BIKcKKRhJERmaBDspBSu02Y4BG6t/uA4ooCH6hIZFGyjNTVlNYEGiGa9QBVlBo zKaFRfGZKlAT+1PIKbZnZ3bmBgu5X6p90eE1DlBOJymj6Cc5T+pJgHdHhCaawfaaz2m8gJzuyqcg hP7Rki1P4TE1vbNALhOl3xJ9CcFrtz4wXcoBBidxCXZTn9IhW/vsjNDsmn7BWpelqkmSFJ5oBEH7 VpytrNGsyrR+1TNTK1KQMz1xwXbm44JEA4wou6yj9L6WazCzCzCzCzWYWoLMLMLMLMLUtQWa1IVx Z9SRuYws4SaVN9ThTKOatKS7IjsrU041mpSKc4mdUPaPpZobO8e9ybxhyUhht7J0+y9BOMkyf2nl f4/inGynfGp+00SWX0hRSTONn/N8kpRzWsLWFQwmVqWpalK0iLWaoVnGa1LUtS1LUs0JYQ6al9h3 FnOHbh7Wdx3MP2+3oMjh5Kr1m5FwdgaVUYTedxZhAQk3O9+wHN88RaMS06AdcyuUXuHtSH/iqf6V UUu0uSH3elH93FuEXKQzvtg2+89COYTOSopEIiElIQpmjMqkaZFZwkpBTKdBvGCdxF+eG0eoNv8A 7E4c+8WhWjlccpKUJqamF7iYSClANXKJKLrwi7cR0Ij+X2iLubslUrIr7XpSQEa5C65F0eYgxdxC 1Ew9XxF24txqxbzF19vGA43GhDBdymxbcHEHFSQECcU7i3AlflDgRdzfEDeLTCpXxCmU43WgZTuH lCLTcEA247iPpEdjg/u4s56EnBHMXcX87guWRkm3HcpsSFIwtGJKdclJTd/IT74I53EdCBB3F9vM XcYbeI2RAG4VZOVyojMqQyhzesjCYNybxeGC0RN9sXcYcu0PdyyfyFSqQ7hZyjUr4hVNyTs41Um4 YHrcm49o5mIF9sTxhzC+lM3dRVTezwKOWrCMXbkR7xvQw283DfA9dfLAJ3IjuMWQUhcdfFymd31B 2Ln1Lj63Np93heACl9/dwnBafVyoVHLNVrAnFPVAdzujT6w7f2bobEIXbPbBs4pienl23Qt7YbOL k0TgzCmL/voT05O6D3TDsHMRqrLcsOi93KqTVM7PzuwOH3WQXyONqX0s1U7TLtuxZ0We6EondgcW ezHowzeLPbDrGW7TRO8A+CWO+9WT9eBEoneg4IEYY2OXR2P7vlg4Y6iXWzUzvvsb/wChlvwIQI32 wP3wCR0nCnsYx/fgVh35tgxplEnwOy7PoT1QicKZU/BZHV1h6qZXrwaakdW6TK9eE2XZ7lMr14XZ f/dw9qZ8NlmFMHbZNzUz4fNpXY7FPAmSpNoPE5OqFMHpRhVwJNqVNx8VmCpPUx1lb/tdh4z8SvnR UPTZ4OdVSg8doV8gqHqqlfGqz8i1L5N/i1dJUqlVSiqfJ6EruqthrCocGrgtSoCqALV5jqK1layt a1laytR/3Ev/xAAsEAEAAQMCBQQDAAMBAQEAAAABEQAhMRBBIDBRYXFAUIGhYJGx0eHxwaDw/9oA CAEBAAE/If8A6E8fUjIHzWyPgrcrQOy/NA6U/wCDpHbUp/s0rhPzW6PkoeGrqXxWXTyflWT6TgPF ZgfKvrsPQIOazJPFIzHmsQQohAT8jeutKvH2Kx5PV9QXBvmrml/VdHu34/iYnVq9X/qgAgIPW4bn rvV6cOjmkYQe/wCNXcI6lXJO8+xHQbVyUOjmkSCH8WvBtRfhKx7KTvdd6l0/FGH/AMhUeYceSaeg rx13a8dA3KA4fWf9EatRP4gEGWo7/E8ieycYpisJzwydfT3Qqck8v4dEDG7UMN93rxwWy5WKuWrT QKY9HdzUzwJOazh5/DDErdXWggwHHgGeY7jVWSsAeii8tIocUxa/ukEEJ+ErCx/dAAAQccw0qsvs USxtoJ440ljvTgIT8HnAdvegAg5GA5o9P2agEHI6TOGnAQn4K+1vugAA5LnmlpeuqBLWCfWygww0 iUQn4H2Vy0CCA9MpkUEEaqw7egmUaRsV2CuwUDeg+/KhQ2/f4EWqCHY5cUuvLCbFQ+/AbmaLm8Vt 8bcK7Y8mGS8PwAFQC7QXc88yzUkW5KLBQefo5FscqC1M8aCQ4rCZ49/2fnB86TI4s07QBAej23zz E8aEbnIksyR764Gy9AgAxz0HNL4tUqdwqVA83oBg4IdKGSeeoFpZZ5syHHItF/6HvhexUYbr+pTD QShRz1YOfuPjkYY3j3ueZbDzy41stBS/OQSGsF6Bz4+gunGW87UiKOT3l84bUY23LZRp5n29vGPI ijjL3mRLaxww5qG+zOX0MRxh1vHmgpRc93QBloBtvZwiAKjCbcDl9DideRHDHu+beOKg5KAMeww6 IF4LF6FQjyOsWT4937mufbTHohyeRA9m58+69/X24XH0Su0YisA8M/uufSTkOwS07cW0NkW71uI0 jClVyasVod6yKVvoUaUzwqR+1PEsj6MT4+kFllrFKQ8He8pIUfdO4HkC8wKUd9Cunm9RBSTGz/FW oMFRzJ8002d5q9AdJ3ohvmGi6tnwVkTDWVy04WU1ecdTUcqI71JEJ2rflxRZWR+6A73+V0wdWguI XQtW0MZmgY3HDRrolx8tFOzbxbmJNqSFPQ5NGymmLh8gv7n3zYoIIOTmKk280UnpT7VKxTzy9Ygi awybBUx5pyTZCOtAAA4VINygE1601vEj9FAvOVTjBU3KMKEO9B5qwkbPFdCxAUjJgJKgCZTUP2JW ulNCGYbVE3dFEFhzF49Cy0GHoIPD/C9zhHy5N5U7KGWoBdL1d51TT6FAJxRMi6yO9FnbzSdX2UNI CGWhat4C4im8iGsuvtLU0aBQMGbeovbzT8RsqNbBipTDG1JxvqIryv1xVzBf1UT83zWBM1k80qqu XmTBSRb0Ay0AQ0C8Xi1/c7fx8kxe8VKXOxXcBerDqNJo3dqkkFNFLD0/dSZSu5TuU641Ane0ky2c aAjc3ZUyUdjXbVPlKebtvQCOT7yFJCnuXnd+SKMjekZUujadRrlQAQEHJNkgoTYgnFW112Iplc4l 7VIpyi9JpcJWkjgcVZ+IlWg8JvSEacxuJCr7fZ5qNC6JjnHNS+cXtQQByv8A94v7lEeWib5a2Mde vLTYtzVg2UxiiY55qS/P7p60qxF/zUTdY2pjtt8VuOF8P+0aVlVT6qVuWV63Xf6q9shywAS1LYqd hNCEUih5s0unLil1l7iJBQQB25SAC7Q9Rvq5wNUiZidHiQcG2mqOK8pRooR0kBe0iyGgIsHEg2jc upNcxystRg0M0ih5YKwVaOATq0R7lALcB+h7iJDt5cd2+NLZnorpw6HBmaFxk37tXD725oxJF44J JdNBIOATeukDq1vL40JyNjfjh80LTK5piGOBlNDJJqL3uIT5v5xItYB17k0AINq+/HpSqy8Jjy5A liu0OWrg+TmDEF9jQ0FnDqC4KLeNYTWKCr630DQX6Kvp8Uh1l/8AOODCFfYD0oaxfrogkOK6UXcW TUPcb+j+cMUGmDUROcFX6v8Arjt0Pu8SsFCDxGrInQ5cGOC7raO+hYW/6ouAFX8iu2OkZY3ajxpZ MlHtL7oeCBokkNXp/wDloA96hLBloDgp3gKWRMNtAQ6cRwNftHuP1XhFjpk1S8i3SPqcQsNQS6t1 c9vl9x6lH7Kw3sOvBCpABdoAHzoAVgpWe9SIhKN5wzr4PfQEF2iAfOlkfLU4u6sDRSG396w+g8Me KHN8VjUWL146FucMBKKCANHj2cSSUZmqnzuGBM1Fv1/1KWxCkZeVvQgG9dJDW6C3+6OCL5qFU2sa p+hr99aifP0tr8Gsl2mKhwlgxFJduj3tT+zk4Rjh2NQhanxwgNSlXrw2/h4Bjdu1fGC/J+wqGdp/ erx88F2iI7aoAbtEZtp2kJrOmfjOfT3TuOQ7bj3HxpPLb/RqpXu4xAdNHDdnilBE3KkrHpQFvkad kla+s8ChdpeLT88H3VR1rXm1CUKEDpp3AzRBO1+JmDLFbt7H64oPLXN4e4uPF41gpSryLpUfV6OK uXniEj15QO84DHfvwdusvWlHn4PtKF28aluG1IghNJNkY0AK4K+lKP6tUAjvS2fzoJUuAKF3Unhn duB2/cSh+/Go5OCHWvH19FI4xnw+dETUZHffTsYzQyDr5RejUt2HhEEzC+aILULJBTbD+9CIcWcW R23oBDTvVvGgEHBa+T3JSuvEWHJ6AZfjVeXb0sY3u0Y3PFLN3UwNvLQ+SCjm030sLV/6pQCyOmNC jWkadnWxWGX9alSopNoddc0rtQe3FN03uX6n+uLHyZT/AFOqjqmf1x/d1gPVccPSoTJqlJDVvFHZ JeECChCUfPF3/Iz5S80UpVXkLBSbNfA7fr3LwvnN7/eoIIMau06HGo8Lgh+0qcV5d707Tb16R7Kb HV2I1B0WBa7hM+5R8UMfGeP/AFQz93BPO8frjcvo8Dz4KRQkPAtzHNBBFCzv/OanQXD6GWtTqX3/ AOTNziDqVrr4y4OzhWdJhqZCcPczgDfbpvbVl9AAgOdio1pbvTxe6M7+3cJ4tzH+HhjLvnWXEQo2 /wDDyZEO132eHiT3SfrnCJRxQiMR4ARYKVnVJEq8TwmtqgnGAILrFKqrl5qSJSQxoMvTICuAp092 fdO3LnFE+/CbfoaoZUV0k79eXLP0rFMdDwKEqCiGV60iUlefnGa7NWj006b2e6jCNd2zhl8OEUuU XDB710qunvTajc9ebiVHeiorsPikbjxr2WozJzpKn0Vr4925rycU7txhKFBAGqWWuy9G2tWQ7c1s LSqy0LhUA+gJPamYy392XodCATCcICGmUPFvNFi7TYWNcI0R9Cd29S5n2BUYN7vvE+s8UBDXfDg3 P01lYcIqkohPpcg0jYrsFHUUnhEorGgg88ETYpE9/wCe8LtuHxQiCcauTTMQ1UJ44IdfRqBLTOLH F4ygSTgyzNGXfQRAzl49669YeOY+RUh9CAS075DuaEST0bswU6u/vWyRWJpPRj9Dl9uVG+jbd7++ OhDjzy8OQyes0wfQgm/bzSIkr75i9Bd73KEv0+sC0sq8xWT0CgS0ln36fK0daZqzyhJOMQefaHXm v6+g3f8AAFzv/DlbbigD0Cl+sVkM8Uqqrf8AAcLeXKyjHACsFQ++iwio98nNUr0KRYMUSzfkpviO tLFd/A4MluO/KVi1eOhbtY3XHWXMOH0MccqfvYqWMbH4IKhG9Adt988KhzP9HOP14eB40rwFdFnB +DIgMJQOP+vVuHnCy6hbaEYioffiSvAV0EcH4QKIjDQbXr6+rELzzTAcpe9XdYYPwuK54pn1Jjz5 knhyrsvsKmb4On4bf3+Gjso9RJ4elTcfr2KdJK/h9lCoMfD6VCAoHehga8Jytx8cizkVN/5H8UZI k09Hh1RmKRGHkT3w5H/DKrsH4rLkNIgIepQIgnoc7QfXUzxQJwURfLjs6z0FW+eyfjKEqfym2HkY o+QTt6VXaoU8qDoAxxZifQVa/hfjqsuUO0/crAM9HPqjpIO9WEL+qz0TofkWPUdGv81TCH5qRx6P FZW+39Vt6r8uvf8AJ8XvmsgnkV/q2kZU+KwH7KGwPjk4J/NdWeKFlU7G+6zj+KVc/mAeA+aA/wAu md1oklCuf30plX/7Ef/aAAwDAQACAAMAAAAQDDDDDDDDDDDDDDDDDDDDDDDDDDDDDDDDDDDDDDDD DDDDDDDDDDDDDDDDDDDDDDDDDDDDDDDDDDDDDDDDDDDDDDDDDDDDDDDDDDDDDDDDDDDDDDDDDDDD DDDDDDDDDDDDDDDDDDDDDDDDDDDDDDDDDDDDDDDDDDDDDDDDDDDDDDDDDDDDDDDDDDDDDDDDDDDD DDDDDDDDDDDDDDDDDDDDDDDDDDDDDDDDDDDDDDDDDDDDDDDDDDDDDDDDDDDDDDDDDDDDDDDDDDDD DDDDDDDDDDDDDDDDDDDDDDDDDDDDDDDDDDDDDDDDDDDDDDDDDDDDDDDDDDDDDDDDDDDDDDDDDDDD DDDDDDDDDDDDDDDDDDDDDDDDDDDDDDDDDDDDDDDDDDDDDDDDDDDDDDDDDDDDMGO8P/v8NsGJDDDD DDDDDDDDDDDDDDDDDDDDDDDDDDDDDDDDDDDDDDDDDDDDK9988888888888euJDDDDDDDDDDDDDDD DDDDDDDDDDDDDDDDDDDDDDDDDDDDDJO88888888888888888ZLDDDDDDDDDDDDDDDDDDDDDDDDDD DDDDDDDDDDDDDDHGc84ss8M8888888888888voDDDDDDDDDDDDDDDDDDDDDDDDDDDDDDDDDDDDDD Hu88888888s8g888888884888uDDDDDDDDDDDDDDDDDDDDDDDDDDDDDDDDDDDDHc888c88888o88 888888888g888ZJDDDDDDDDDDDDDDDDDDDDDDDDDDDDDDDDDHU8888c8888888M88888880w4888 8dDDDDDDDDDDDDDDDDDDDDDDDDDDDDDDDDDW88888088880c8s888888k888M0888uDDDDDDDDDD DDDDDDDDDDDDDDDDDDDDDM8888888Y0wkc888888880888888088sJDDDDDDDDDDDDDDDDDDDDDD DDDDDDDRc88884888888s0888888808888888088sLDDDDDDDDDDDDDDDDDDDDDDDDDDDD984088 s888888888888888c88888884888MDDDDDDDDDDDDDDDDDDDDDDDDDDDB8848888888888888888 4c808888888o888rDDDDDDDDDDDDDDDDDDDDDDDDDDDM8888888888888888888888U88888888c 088CDDDDDDDDDDDDDDDDDDDDDDDDDD0888Ag0M48E40Y4ww888888888888888k8U8aDDDDDDDDD DDDDDDDDDDDDDDDDD8888IEYo4cYooMYYos88888o88888888cU884DDDDDDDDDDDDDDDDDDDDDD DDDE8888soYs8cMYY00A4g88888848888888c888sjDDDDDDDDDDDDDDDDDDDDDDDDQ888880848 48oA0MIw08888ocsQ88888488008rDDDDDDDDDDDDDDDDDDDDDDDDV8848gos8cU88s888888880 ss8ssE080cQc8c8BDDDDDDDDDDDDDDDDDDDDDDDD98ss8E8888c880888888o80c4s8kcc8MUg88 o8gDDDDDDDDDDDDDDDDDDDDDDDD988c48M88c088o8884c808M84048cos8UU8848iDDDDDDDDDD DDDDDDDDDDDDDDX8880888k8888Mo888MMU8E84Us8ko044g88k8rDDDDDDDDDDDDDDDDDDDDDDD Dy88s8888E88880s88888U48c840sw8080s8kc8ADDDDDDDDDDDDDDDDDDDDDDDDH88488880o88 80s088M8sc8888s8888s888848LDDDDDDDDDDDDDDDDDDDDDDDDB888888E84488Y840oM888884 M08888888c887DDDDDDDDDDDDDDDDDDDDDDDDDD28488888848840888888888s888888888888n DDDDDDDDDDDDDDDDDDDDDDDDDD88808s4s88888M88888w88888c8888888888gDDDDDDDDDDDDD DDDDDDDDDDDDDB08o088s4c48888888so8888880Y8888888rBDDDDDDDDDDDDDDDDDDDDDDDDDD DX88cw04c88U8888888848c848Ys8888888ADDDDDDDDDDDDDDDDDDDDDDDDDDDDV088888888o8 8888888U8888888888888vjDDDDDDDDDDDDDDDDDDDDDDDDDDDDDa88888888s8888888088888o 88888888wDDDDDDDDDDDDDDDDDDDDDDDDDDDDDDDU8888U88k8888888088888o8888888nDDDDD DDDDDDDDDDDDDDDDDDDDDDDDDDDB/wDPPLMNHOPPPPPPHPPPPPKPNGPPPMowwwwwwwwwwwwwwwww wwwwwwwwwwwwwwww5vvPPPPPDPPPPPLPPPPPPLPHFPPMAwwwwwwwwwwwwwwwwwwwwwwwwwwwwwww wwwwwfvPPPPPPPPPPPFPPPPPJPPPPMgwwwwwwwwwwwwwwwwwwwwwwwwwwwwwwwwwwwww00/PPPPP PPPPPEPPPPPHPPOMoQwwwwwwwwwwwwwwwwwwwwwwwwwwwwwwwwwwwwwwwwcvPPPPPPPOHGPPNHPP PEgwwwwwwwwwwwwwwwwwwwwwwwwwwwwwwwwwwwwwwwwwwwwvPPPPPPPPPPPPPOkgwwwwwwwwwwww wwwwwwwwwwwwwwwwwwwwwwwwwwwwwwwwwww0VMv9PPPOPMSkwwwwwwwwwwwwwwwwwwwwwwwwwwww wwwwwwwwwwwwwwwwwwwwwwwwwww4ww4wwwwwwwwwwwwwwwwwwwwwwwwwwwwwwwwwwwwwwwwwwwww wwwwwwwwwwwwwwwwwwwwwwwwwwwwwwwwwwwwwwwwwwwwwwwwwwwwwwwwwwwwwwwwwwwwwwwwwwww wwwwwwwwwwwwwwwwwwwwwwwwwwwwwwwwwwwwwwwwwwwwwwwwwwwwwwwwwwwwwwwwwwwwwwwwwwww wwwwwwwwwwwwwwwwwwwwwwwwwwwwwwwwwwwwwwwwwwwwwwwwwwwwwwwwwwwwwwwwwwwwwwwwwwww wwwwwwwwwwwwwwwwwwwwwwwwwwwwwwwwwwwwwwwwwwwwwwwwwwwwwwwwwwwwwwwwwwwwwwwwwwww wwwwwwwwwwwwwwwwwwwwwwwwwwwwwwwwwwwwwwwwwwwwwwwwwwwwwwwwwwwwwwwwwwwwwwwwwwww wwwwwwwwwwwwwwwwwwwwwwwwwwwwwwwwwwwwwwwwwwwww//EABkRAQADAQEAAAAAAAAAAAAAAAFg gJAwUP/aAAgBAwEBPxCyh7vMDvLAAGARbgABAAKCO2QhG/6N5ViiCAAAAUBFxPjV/8QAHhEAAQQC AwEAAAAAAAAAAAAAARFQYHAhgAAgMZD/2gAIAQIBAT8Q2XDBRJytBsglknAebAtrZAbUF0NGhaBD QIgUEIl2CT+DcdwBY5wGzMoNgBR/Ya16IoNrgYkNcdPsbscxmOno7PGOno4hS7CJqgdBDWjFKTRo GTIWgr3aDnQxo2Z0Lsgh7RMUd2zaP//EACwQAQABAgUDBQEAAgMBAQAAAAERACEQIDFBUTBhcUBQ YIGhkbHB0fDxoOH/2gAIAQEAAT8Q/wDoSBUAlrUP5Ir986J0tAPyIK17znWjH7VoHA4rWrTug8Vf nIK2G7YNXraHcNPQ33D5VGSTlIKins5lrW97qMjxgegCQCOzU2rc21JLfAkqUR5lUqJwkfI4J3UL HlqGGKYmR5D6iHD7BqQ4A1pJPl1RFEh+PID9XlQkvdtQ0INAID1pb4Tak39eqPTrYR8aRPpgVEfz IUEewtTP6eGpj6pUQqLCJCfFgqvyKPSfyFAAAACweyxYuBsKSG8xqfFC5e2b0HmWeyXOCg/5Wl9I V238oLUVN1yi5J9ZPxflRK4P4/EE6vsUdA/DOAu34rfocGd+VDRbTLF0D6dOYbO5TSbZOp2fh0fY OroVrmNXXOvfMeKVVVl6IqEblCO7RxidgTRVsRfRpwoACMjkAIBHUag8lSiKJf4WHlJvuoD3RBnh bz86kfMMVxma0SPRIYMSjBeC5iBmum1UaKhH4S+BDQ3qaYCANs4J0i1F9igyEqnBxdi+e24luVPf VCPwdkYGjnQAAAgDoXPterMXgX06Et1Q5joLEgVT31Qj8FhxCf3QYABAG3R+wR1Ym+HjGYEFKRc4 9bA8B8lJyQiO3wMgMilRgBQB0hHmeopmgAaBjLwKmYp79fQgoGq+bU7NRu17sPDWkxe/SnbYucaR FEh+Amfd1eCokmo8vL04ng6aICVo+61chyQanEuu71VAqwUzNk5pVZWXNbyRw1ZXwPRm/AAmTKAB u0KAQi+oCbtqRKITowZloaddz6JQFaeKw9JIpJzxQgEZHOqAUQjTTllV8e//AOOX9etci3OlIizA qAVq4KDjerAHo926hyG/GgBJHOddnR4aGKFj32ALrlGagAAdcKANXiVHbGCG+K3xSwgZGTXQANE6 4ubFIi1XqrvGhnOOmu/PviFAKrAFAqbx6qRiNVoQB14ea9feuglmKX3s1JuO7p3j7Cr5UW49Z8Ej Ssi/oJE4B1xRE1Kgt2+dGFt3w0SUIie8hlLgrRJP9d3plAUiKhygND17lO76CJHgehC/b7X3mLds tGylW1SiIhj2b9L6GVblnO8dRdxWEkiJw+7hDKAHetjjd5cumhYeynsLKNW9AYpMZP0voYltHQil yefd4ZWMx8AlDwAPYY0mE0pwSDIYXC+hUzZKGQTOMZaffTT3YSpHtt+YM+i+hR0GDL/1+6m28ZoA ACwe2+SEeikLhwkQVovc43ywyXUPusijQOhHVpsVb9agcIvTaqJp3GYZuhBKu1PyKxbGIiG8mpol EAIq0PSVdCo9VAyZXJ2NVoVEnvAi/o515T6J3PYp0aRtRaFQjCV34Mgr74UgCEUfdIWkDLocxtQn 0Dud1AgAAEBUqMIPqhwQAFNmZBNZcJtzmp3G6NVIqRP2OaSFAw7KlN8FOaRGLGtAKhkOCh0wVQSL QUIGwLioGSUCaNaRrnuuprcky+qJsAdaoX2AamuuJewpcwEhUP0GQ3Kjk5qRgPcAjk6gBWiRTObP ofwYHsi57CzRx9zUbboABAEB0HRcFyKMH/rKPkRpt/dTRnKoPPm60uoHNAEn4QGmuPQNM1LQYVSp hpFXG5NTkRlLSSAAe1W0qMKvYTp4JqC4AFDnB3A0jK2w8UIUQFAa6kFAQhWp2P8Ai1MXedoLULR1 31VtwdRGDRs+hN7sYOvm5hBHjLbE5fucuFg9F4vSczFBNpqaBHzWo7arwoUCawNxUAQcgaIGfwLU rqqNKO14Lu0BTAG5KOiHdp6igTVHGd0ip4hnUdKKrmhsUE4RoQUtiUzStWIjsoBlD9lBLxRTJQD+ FRIig7KvVhkdB4WJCNKhkKpzT5Sir1AR3KRK1H0FruBhDCanV3MBYuQ+53eaoXo6LBVLmlHmaZDM udSVEB5EoWA0w0KDCqC1HTGa1CloqlDjFIk0Wo4qAbDy4bMypa1fAo1SrzeFclIIfm0iSmV/5bSF CNbHV27z6CJ7q9HvclM9sp7lNt2vokkAbJXfmSzgM8KNimpq0aEGwR0U4A1WoJCQ51FJQoSt00fg M2i1JbokJR4RTqlsC7SVWoNwqWdCqeToDej9LliKSk3LIoieup+F6qARLJSQ7OnWCgarFdpDpWkg mnj3J27PTH+XgKLhG7cumkrYm6CpnAJmhT/y18TSapiNoCpwTS17awRCppE2WyGJmWkOk9BW0UvZ tCQjQ8qCaws0bCanidGC2kQUy0q9KKzygmv2OnsZrMUBQl3wVqkgXOrKPTpj7f8AcXcBCo82J0mx KQFAhdXXLj+7jUeuB4qFOMIwxq1/1DX/AEjX/SNArYoSr026mWjKHw0H9SAhqFkRckmME1gJWh// AMtG+a7b+Ndt/Gv+8aAyLyii0gM9JsW0Lj+DCONk0aQBfpkgu0JDFQJacQeW1L7n8o7aSpcsnlg+ 4u/J9OAjezAXJ4DTrfWqrKrifMwReQzlxCVj5bB1ZJXISZHIF8DibtBAGMUHhpcgLpQXXeNf+gVe 99jNBUAlaSKkvio2H+DRkjc7YK1Lf3IPH2UZpZMZ+N7jj/n/ABmWErQkzYuNuv4o6UAgoJNP0KJk VWVcv2a4Mi5zACrAVEBjEX5V1CGYrtsYRNEbGNnR8FKby8JU7DXfH75l0KBA5VwfwbZaVkexTKl4 Vom+5cmR/wDSowPLpQkE73rgwAVqNBoZwzSHBcxkLwfcTPj/AM+VwLE3cG2OGcdYE0W1f4VKqq3z ADhpucxDmNKHum4qHp02LFSEGHezAHJ2TegM4cFPwJzTy0zTAvZF+IoDCDC6w6fYp8swU3oKKNgw BgESEa0eTIRqo5/wVf0l3oQMXuKjzgUiUBLUCoQHDcvI5m7i2Intv7icppwIjBbh2MbMS9AO1gwc nw3MjxG+R/P4g6c+i7iULuirKyUAgjEitkSgBWqlquXBLYCWtQVWOCjCboSpAhji5trCdwkBWulq uXCAzWlNVSlP3BytarbscGxm/QYifp92OUp8VGzKAAAgMJpiDL8p2gVsVqzjDw5O8iFdviMLXhmA QSRK7iiYq1y505VDKl7Wqy3KARQXTYaLqBAUBOiBi7WkPOgRAQGRwelRKtjFRyMTbbp4YxB3f8wi 3WcUFNFQ3bQCki2NDnEl3Mf8X3FR3zoVAVpm2D+5Ws3hxstM4pt+IM/Z4YOlI7qly3bzHIwDY0Co WXLULuRytZbkyecVouXkcjkYd40KbXAhWmEAwLmqiqV1WcDOenWwYqO8h7iC+VPx6EAfdnnv4CF6 hxXcmc0EoV2oBh2SbNHtJI1YmaLnt0y0QqWhKhV1ohW7kAqABKtKAjGU+CDgx+7HFzNVCu2IMIw1 c0U9Bce354p7aU1rcknzLNf3W7FR3vcWR9vOCLoFK5u5xRE1KAt2jUhN3GCBOwUpHLc3ZkMYnnZ7 MWeJyHzk5Ehf9BQS8kwdc15RHHykeVIYRCODmGFQ+AlaVHTQcFGtwTHTuCJUrLgEjSyaewqJAuxS 8FcpTks1yR8j3GvGloZBzTpyx0e3qI0Q3Ye0KzuU5Mf2+mATYYpKA9fGC8N0IZkSTFm7RFJIC+By Xu721qbu0UlAAEBoU1EG7SVwXBoArmFKcNZTcKhCW2cXDblQULGT+g9xaUfDj1wWLsTx4h8BnGfK /wCHEz5XTcBNuMAjVm2kSiqyripcNiYKSLdaVQxwLfCDLsupVkZOKTAzszgPPl2hVHI2Km4eDQMR UIwjaiCB24MUfY7tGM+/ucUBCYF0KulKHu0nP+B/pmdjt0SMf68dl9T+Wf8Acx7QjOLonwU6gPJi DXR3JzFPUru5QgxxNS4vKXKKMijShDD5egeATjWjwsngKYLG6zlkdHFZ+2myNiIxl+yP5e5S76fN p+DoBwQgugAIBAYij0zqPODJE5CzBbq7aFBGp69WFhX70chbt8QASEXqYlldcAQ0BaVhu/uTh/MG 52M9/o6uwr7n1q5OKCDOcXUXIRKNHvSdwNxyDEIkrmgAEAQFGPS08dUmiKfi76FMWtWaYRzsZu3S D3OQWAA5jfMMWXAUFANzdXIT+jtKpVlWcLEzFHbi6Ze2hkhhdtxTmlUBKZSkuzbQocADQKNri1Kq r1GUcYpfSjHp4dbzPunN4ZU8uHMRcK7Ze/C/EILav3mU1BcO/Rps26pM4msensxsZ7pNGsplPmDN DoKH+ZGZgJa3uGxwYm5olOLCGXWUVzkr/wABs9jmiUmEpK9UuQKRFqMYWu4HpluhKvatWp/dF0ub O1LsoKA47zFyQBKrAUaq67y9OZdt1o0LA72SjA5Fp13x6FJ4RKvXb+sc0IxOhI+mhVux91QBuIlA e6c5bmF7sqAiI2Shbk3NJDHaXJUaGwqPkOrqe4XUHSpKHh0mT/dzjUBr/Sh1kNUKA6I+ih2sQ+fd raM3fzVpnQjVaMzQMdCShdPRDo0FK1Gk8R6tHAC07S7T0pGuXPQM3YrS1yqvdhjvuclOXIUeTKho V/Q85kLV3TAApAU0jcR3Y4atCyanoXYMUZEFSOq48WOh5fQSFuveOXXF3M0eKlUO4YguhTqH4xPs hr5ymEuULHpeSOK3q+WmiX/ha3GHvl7+DSKRITByOsT14kQKvatzJY494lN4PNX4kQRz30Zrsv8A a0pMT4gpVVc1/NvRnyQVPn+5miTXhQ5Mk4SKJCyjp6CaO/2e9ZBv8/qWAcpnlLld+D0LdKljpsdA qNNyjySJ6Nk4NVrf/WOD3rXEenJSVydOnp83oSE4U9AoCuhT9lodK4tHTz6OdOF74mr35fHTm9wx 0P1eg0i93pjCJXcg9C0IdB5qmBSq7vvgqAwjI0YHsHnpeFX6BhPK9c2NinY1XqS8Vn0CBIAlaSq1 Ae/beXgFS1jk6KSI0qmznj3aevEHqoI8v0EM+VPgCaqP6oRBGR6MoBc1zLthd9BGuAOq483XNVsw eKTQpVXf4D/M26OtMk/+OQMErR91q4DhwtOvkdWQcr1f3ZEiwKbLCei3PbcVShk/hwfApREojiax 29KZVKk9FU3TDtehLL84t+ip/UdRQnZ6wnyYy7tGBqUaGeBgVK7ZtxnwRwwGRNqLoH8Ovhrwm9Bs Mrq9T83WSS4eXYGxdzghFKtbt+DDRkqRNqEoB/PVhIdnrQ81jFUCURqFFNHyLVzEhFdrdqPhG+YG RLJUOhsaD1eIcPq9tDpRUw0N1qa/ys+FvC20pEAjIkj6m6bCepDrpd0pU5NHVptP4NPhp8n4N6DG T1F/NbumCoGrQEbt3oySG9qoTu6Vfh5WQ3NmiYfN0fSzZhbzSUs+zR7ElI5uudLa/DoNTFzTcved /iaHm5tygyl6P8GBQnipi12afBCdBYF2HPQlYvxpIwtjY+KlBLii/wCVTT0VojPoRAFMCy84xh12 a1Mk5MrcM1H3OGxnl/tk0o/GSu4wGqqPmvNQW5bqfS3ux7U7SoO/5rWBaCgAdsxqfZbU8vY+Ohrv s1GirwR9beqKeYlFSH8IpIH0efIo8Z5JQWPKlRsR4saBShPRlL5dqWB2hFJAjV3XEp+Tpz4WkGH1 Du+av3Tp/l3Ci5C7h6Chda/homv9dFwzZY7qy6mLfiwpKUr8w/NplaNQC0wvaJ1FOpL71+ziv/2I /wD/2Q== "
       preserveAspectRatio="none"
       height="242.26012"
       width="296.1615" />
  </g>
  <g
     inkscape:groupmode="layer"
     id="layer5"
     inkscape:label="logo"
     style="display:inline;opacity:1"
     transform="translate(-157.14516,-151.26306)">
    <g
       transform="matrix(4.2311436,0,0,4.2311436,-885.11307,-286.59081)"
       id="g7079">
      <g
         id="g7494"
         transform="translate(-3.1821085e-7,0.08327723)">
        <g
           aria-label="noc"
           style="font-style:normal;font-weight:normal;font-size:12.98334312px;line-height:1.25;font-family:sans-serif;letter-spacing:0px;word-spacing:0px;fill:#ffffff;fill-opacity:1;stroke:none;stroke-width:0.32458356"
           id="text7069">
          <path
             d="m 268.91191,108.53064 q -0.0585,-0.10245 -0.0585,-0.0878 0.0146,0.0146 -0.0732,-0.0146 h -0.0439 q -0.14636,0 -0.21954,-0.0293 -0.0732,-0.0293 -0.10245,-0.0585 -0.0293,-0.0293 0.0878,-0.10245 0.0293,-0.0146 0,-0.0439 -0.0293,-0.0293 0,-0.0439 0.0293,-0.0293 0.0146,-0.0585 -0.0146,-0.0293 0.0146,-0.0585 0.0732,-0.0585 0.0732,-0.14636 0.0146,-0.0878 0.0732,-0.11709 l 0.54154,-0.17563 v 0.5708 q 0,0.6879 0,1.33189 0,0.64399 0.0146,1.28798 0.0293,0.62936 0.0732,1.28798 0.0439,0.64399 0.14636,1.34653 0.0146,0.0878 0.0146,0.20491 0.0146,0.11708 0.0146,0.23417 l 0.0146,0.0586 q -0.0293,-0.0293 -0.0585,-0.0732 -0.0146,-0.0439 -0.0293,-0.11709 -0.21955,0.33663 -0.43909,0.32199 -0.2049,-0.0146 -0.40981,-0.29272 -0.0146,0.0732 -0.0439,0.11709 -0.0146,0.0293 -0.0146,0.0585 0.0293,-0.24881 0,-0.49762 -0.0146,-0.26345 -0.0146,-0.51227 0,-0.46836 -0.0146,-0.83426 0,-0.38054 0.0146,-0.83426 0.0146,-0.70253 0.17563,-1.46361 0.161,-0.77572 0.49763,-1.41971 0.33663,-0.65863 0.86353,-1.06844 0.54154,-0.42445 1.33189,-0.42445 0.90744,0 1.39044,0.42445 0.48299,0.42445 0.70253,1.06844 0.21954,0.62936 0.26345,1.3758 0.0586,0.73181 0.11709,1.34652 0.0293,0.36591 0.0585,0.73181 0.0293,0.3659 0.0878,0.73181 0.0732,0.35126 0.17564,0.70253 0.10245,0.35127 0.29272,0.67326 0.0293,0.0293 0.0439,0.0732 0.0146,0.0439 0.0439,0.0732 0.0146,0.0146 0,0.0439 -0.0146,0.0146 0,0.0146 0.13172,0 0.23417,0.0439 0.10246,0.0439 0.19027,-0.0146 0.13173,-0.0732 0.29273,-0.0878 0.17563,-0.0293 0.33663,-0.11709 0.10245,-0.0439 0.14636,0.0585 0.0585,0.0878 -0.0439,0.14636 -0.161,0.0732 -0.23418,0.23418 -0.0585,0.17563 -0.19027,0.24882 -0.17563,0.11708 -0.33663,0.26345 -0.14636,0.14636 -0.39517,0.14636 -0.36591,0 -0.62936,-0.27809 -0.26345,-0.26345 -0.45372,-0.64399 -0.19027,-0.38054 -0.29272,-0.77571 -0.10245,-0.40982 -0.14636,-0.65863 -0.11709,-0.67326 -0.161,-1.34653 -0.0293,-0.68789 -0.0878,-1.37579 -0.0293,-0.322 -0.0878,-0.70254 -0.0439,-0.38054 -0.19027,-0.70253 -0.14637,-0.33663 -0.40982,-0.54154 -0.26345,-0.21954 -0.71717,-0.21954 -0.5269,0 -0.86353,0.27808 -0.33663,0.27809 -0.54154,0.73181 -0.2049,0.45372 -0.29272,1.02453 -0.0878,0.55617 -0.11709,1.12698 -0.0293,0.57081 -0.0293,1.08308 0.0146,0.51226 0.0146,0.86353 0,0.13173 0.0146,0.33663 0.0146,0.19027 0.0146,0.39518 0,0.19027 -0.0293,0.38054 -0.0293,0.17563 -0.10246,0.29272 -0.10245,0.161 -0.26345,0.20491 -0.14636,0.0585 -0.30736,0.0146 -0.14636,-0.0439 -0.26345,-0.17563 -0.10245,-0.13173 -0.11709,-0.33663 l -0.0146,-0.10246 q -0.0146,-0.0878 -0.0146,-0.19027 0,-0.10245 -0.0146,-0.17563 -0.10246,-0.71717 -0.11709,-1.39043 -0.0146,-0.67326 0,-1.31726 0.0293,-0.65862 0.0585,-1.31725 0.0293,-0.67326 0.0293,-1.3758 0.13173,0.0878 0.19027,0.13173 0.0586,0.0439 0.10246,0.0878 0.0439,0.0293 0.0878,0.0585 0.0439,0.0293 0.13173,0.0878 z"
             style="font-style:normal;font-variant:normal;font-weight:normal;font-stretch:normal;font-size:25.61324692px;font-family:Hashtag;-inkscape-font-specification:Hashtag;fill:#ffffff;fill-opacity:1;stroke-width:0.32458356"
             id="path892"
             inkscape:connector-curvature="0" />
          <path
             d="m 277.08356,109.0429 q -0.11709,-0.0146 -0.19027,0 -0.0585,0.0146 -0.17563,0.0146 -0.43909,0 -0.71717,0.27809 -0.27809,0.27808 -0.43909,0.68789 -0.16099,0.40982 -0.23417,0.86354 -0.0585,0.45372 -0.0585,0.80498 0,0.322 0.14636,0.58545 0.161,0.24882 0.40981,0.43908 0.24882,0.17564 0.54154,0.29273 0.29272,0.10245 0.58545,0.13172 0.54153,0.0585 0.99525,-0.0732 0.45373,-0.14636 0.77572,-0.40981 0.33663,-0.27809 0.51227,-0.67326 0.19026,-0.39518 0.19026,-0.86353 0,-1.02453 -0.51226,-1.66852 -0.49763,-0.64399 -1.46361,-0.64399 -0.20491,0 -0.35127,-0.0293 -0.14636,-0.0293 -0.33663,-0.0146 -0.13173,0.0146 -0.14636,-0.11709 -0.0146,-0.13173 0.11709,-0.14636 0.2049,-0.0293 0.35126,-0.11709 0.161,-0.10246 0.36591,-0.10246 0.65862,0 1.20016,0.19027 0.54154,0.17564 0.92208,0.54154 0.39517,0.3659 0.60008,0.89281 0.21954,0.5269 0.21954,1.2148 0,0.68789 -0.26345,1.27334 -0.26345,0.57081 -0.73181,0.99526 -0.46835,0.40981 -1.12698,0.61472 -0.64399,0.2049 -1.41971,0.13172 -0.43908,-0.0439 -0.87816,-0.24881 -0.42445,-0.20491 -0.76108,-0.5269 -0.33663,-0.322 -0.55618,-0.74645 -0.2049,-0.42445 -0.2049,-0.92208 0,-0.42444 0.14636,-0.93671 0.161,-0.5269 0.45372,-0.96598 0.29272,-0.45372 0.70253,-0.74645 0.42445,-0.30736 0.96599,-0.30736 0.13172,0 0.2049,0.0439 0.0732,0.0293 0.19027,0.0585 0.0586,0 0.0732,0.0439 0.0293,0.0293 0.0146,0.0732 0,0.0439 -0.0293,0.0732 -0.0293,0.0293 -0.0878,0.0146 z"
             style="font-style:normal;font-variant:normal;font-weight:normal;font-stretch:normal;font-size:25.61324692px;font-family:Hashtag;-inkscape-font-specification:Hashtag;fill:#ffffff;fill-opacity:1;stroke-width:0.32458356"
             id="path894"
             inkscape:connector-curvature="0" />
          <path
             d="m 283.65004,109.40881 q -0.0146,-0.0293 0.0293,-0.0732 0.0585,-0.0585 0.0146,-0.0585 -0.49763,0 -0.98062,0.322 -0.48299,0.30736 -0.87817,0.77571 -0.38054,0.46836 -0.61471,1.02453 -0.23418,0.54154 -0.23418,1.0099 0,0.21954 0.11709,0.33663 0.13172,0.10245 0.30736,0.16099 0.19026,0.0439 0.38053,0.0585 0.20491,0.0146 0.36591,0.0439 0.49763,0 1.03916,-0.0293 0.55618,-0.0439 1.09771,-0.14637 0.55618,-0.11709 1.05381,-0.32199 0.49763,-0.21954 0.8928,-0.55617 0.0732,-0.0732 0.14636,0.0146 0.0732,0.0732 -0.0146,0.14636 -0.36591,0.322 -0.77572,0.64399 -0.39517,0.322 -0.83426,0.58545 -0.43908,0.26345 -0.90744,0.45372 -0.46836,0.17563 -0.96598,0.20491 -0.21955,0.0293 -0.39518,0.0293 -0.161,-0.0146 -0.38054,-0.0146 h -0.0439 q -0.38054,-0.0732 -0.6879,-0.10245 -0.30736,-0.0439 -0.65862,-0.21954 -0.36591,-0.17564 -0.54154,-0.5269 -0.161,-0.35127 -0.161,-0.76108 0,-0.60009 0.33663,-1.25871 0.33663,-0.67326 0.86354,-1.22944 0.5269,-0.57081 1.17089,-0.93671 0.65862,-0.3659 1.30261,-0.3659 0.46836,0 0.67327,0.14636 0.21954,0.13172 0.24881,0.32199 0.0293,0.19027 -0.0732,0.38054 -0.10245,0.17564 -0.26345,0.26345 -0.161,0.0878 -0.35127,0.0293 -0.17563,-0.0585 -0.27809,-0.35126 z"
             style="font-style:normal;font-variant:normal;font-weight:normal;font-stretch:normal;font-size:25.61324692px;font-family:Hashtag;-inkscape-font-specification:Hashtag;fill:#ffffff;fill-opacity:1;stroke-width:0.32458356"
             id="path896"
             inkscape:connector-curvature="0" />
        </g>
        <g
           aria-label="π"
           style="font-style:normal;font-weight:normal;font-size:37.44394684px;line-height:1.25;font-family:sans-serif;letter-spacing:0px;word-spacing:0px;opacity:1;fill:#ffffff;fill-opacity:1;stroke:none;stroke-width:0.93609875"
           id="text7073">
          <path
             d="m 266.74372,106.69062 v 2.66934 h -4.2417 q -0.31081,1.90146 -0.51192,4.40625 -0.20112,2.5048 -0.20112,4.00402 0,1.60892 0.63991,2.37681 0.6582,0.74961 1.64549,0.74961 0.80446,0 1.35295,-0.51193 0.5485,-0.51193 0.6582,-1.5175 h 0.65819 q -0.3291,2.74247 -1.38952,3.9126 -1.06042,1.17012 -2.37681,1.17012 -1.35296,0 -2.2854,-1.26154 -0.91416,-1.27982 -0.91416,-5.06444 0,-1.66377 0.20112,-3.72977 0.31081,-3.34582 0.49364,-4.53423 h -4.29654 l -0.40223,5.57637 q -0.47537,4.36968 -1.15184,6.7465 -0.36567,1.31638 -1.13356,1.9563 -0.34738,0.31081 -0.85931,0.31081 -0.71305,0 -1.18841,-0.45708 -0.45708,-0.4388 -0.45708,-1.06042 0,-0.51193 0.18283,-0.95073 0.1097,-0.27425 1.00558,-1.5175 0.60334,-0.82275 0.93244,-1.77347 0.3291,-0.95073 0.60335,-3.08986 0.0549,-0.38394 0.43879,-5.74092 h -0.53021 q -1.27982,0 -2.08428,0.51193 -0.80446,0.51193 -1.71862,2.066 h -0.65819 q 0.58506,-2.19398 1.48093,-3.38239 0.89588,-1.1884 1.7369,-1.5175 0.84103,-0.34738 2.70591,-0.34738 z"
             style="font-style:normal;font-variant:normal;font-weight:normal;font-stretch:normal;font-family:Onyx;-inkscape-font-specification:Onyx;fill:#ffffff;fill-opacity:1;stroke-width:0.93609875"
             id="path899"
             inkscape:connector-curvature="0" />
        </g>
        <g
           id="g927"
           inkscape:transform-center-x="1.8969343e-05"
           inkscape:transform-center-y="-3.625672"
           transform="matrix(-0.61248269,-0.73384776,0.73384776,-0.61248269,347.17598,382.53321)">
          <g
             id="g933"
             inkscape:transform-center-y="1.0101376"
             transform="rotate(0.54922773,267.7718,115.30636)"
             inkscape:transform-center-x="-0.00085976395">
            <g
               id="g4609"
               transform="rotate(139.12306,267.79946,115.34847)">
              <ellipse
                 ry="19.606783"
                 rx="19.761168"
                 cy="-242.84718"
                 cx="-161.35152"
                 id="path878"
                 style="opacity:1;fill:none;fill-opacity:0.01932367;stroke:#00a9ff;stroke-width:0.55554605;stroke-opacity:0"
                 transform="matrix(-0.1788369,-0.98387873,-0.98387873,0.1788369,0,0)" />
              <g
                 aria-label="Wichterlovo gymnázium"
                 style="font-style:normal;font-weight:normal;font-size:24.01241875px;line-height:1.25;font-family:sans-serif;letter-spacing:0px;word-spacing:0px;fill:#faffff;fill-opacity:1;stroke:none;stroke-width:0.6003105"
                 id="text4600">
                <path
                   d="m 256.92125,131.49633 0.0388,-0.0404 q 0.0775,-0.0807 0.14017,-0.14496 0.0626,-0.0642 0.12023,-0.1273 0.0626,-0.0642 0.12416,-0.13347 0.0646,-0.0673 0.13905,-0.15001 0.0337,-0.0392 0.0607,-0.0611 0.0289,-0.0249 0.0607,-0.0611 0.0298,-0.0331 0.0815,-0.0869 0.0537,-0.0569 0.11938,-0.11916 0.0677,-0.0653 0.14464,-0.12475 0.0789,-0.0625 0.1522,-0.10257 0.0783,-0.0412 0.1471,-0.0538 0.0718,-0.0106 0.12739,0.0248 0.0802,0.0512 0.0877,0.12103 0.008,0.0699 -0.0184,0.14451 -0.01,0.0154 -0.0155,0.0379 -0.029,0.12037 -0.0575,0.21941 -0.0284,0.099 -0.058,0.19302 -0.0296,0.094 -0.0622,0.186 -0.0295,0.094 -0.0619,0.1992 -0.0276,0.0909 -0.0484,0.1644 -0.0158,0.0724 -0.0316,0.14478 -0.0138,0.0693 -0.0265,0.14366 -0.0127,0.0744 -0.0271,0.16499 -0.004,0.0194 -0.0152,0.0511 -0.008,0.0337 -0.0158,0.0724 -0.005,0.0356 -0.007,0.0651 0.002,0.0314 0.0202,0.0432 0.009,0.006 0.003,-0.0244 -0.007,-0.0303 0.0132,-0.048 0.0469,-0.0395 0.0826,-0.0819 0.0407,-0.0435 0.0607,-0.0611 0.11151,-0.10682 0.21967,-0.2288 0.11013,-0.12506 0.21716,-0.25209 0.11013,-0.12506 0.2152,-0.249 0.10507,-0.12394 0.2034,-0.23049 0.20169,-0.21422 0.42529,-0.44919 0.22361,-0.23496 0.4236,-0.43291 0.0278,-0.03 0.0609,-0.0479 0.0331,-0.0179 0.0609,-0.0479 0.0278,-0.03 0.064,-0.046 0.0382,-0.019 0.0702,-0.042 0.066,-0.049 0.13418,-0.0403 0.0713,0.0107 0.15149,0.0619 0.0247,0.0157 0.009,0.0404 -0.0138,0.0216 -0.0384,0.006 -0.0525,-0.0334 -0.0915,-0.006 -0.039,0.0272 -0.08,0.0575 -0.016,0.0115 -0.0407,0.0435 -0.0197,0.0309 -0.0453,0.071 -0.0236,0.037 -0.0503,0.0721 -0.0216,0.0339 -0.0365,0.0505 -0.19802,0.19486 -0.41854,0.43179 -0.21855,0.23385 -0.41716,0.45003 -0.10141,0.10459 -0.20648,0.22853 -0.10507,0.12394 -0.21717,0.25209 -0.11012,0.12506 -0.22333,0.24815 -0.11013,0.12507 -0.21855,0.23385 -0.0219,0.0208 -0.0677,0.0653 -0.0407,0.0435 -0.0896,0.0861 -0.0848,0.0718 -0.17071,0.0908 -0.0879,0.0221 -0.12797,-0.003 -0.0339,-0.0216 -0.0535,-0.0862 -0.0185,-0.0595 -0.0291,-0.13137 -0.006,-0.073 -0.005,-0.142 0.003,-0.0721 0.01,-0.11085 0.0164,-0.0937 0.026,-0.17004 0.0147,-0.0774 0.0274,-0.1518 0.0158,-0.0724 0.0335,-0.14786 0.0197,-0.0786 0.0493,-0.17254 0.0304,-0.10213 0.063,-0.19415 0.0326,-0.092 0.0633,-0.18095 0.0326,-0.092 0.0611,-0.19105 0.0284,-0.099 0.0586,-0.21435 0.008,-0.0255 0.0132,-0.048 0.0107,-0.0236 0.0163,-0.046 l 0.001,0.005 0.001,0.005 q 0.003,0.002 0.001,0.005 0,0 0.003,0.002 l 0.004,0.007 0.009,0.006 q 0.005,-0.001 0.003,0.002 0,0 0.005,-0.001 -0.0536,0.009 -0.1446,0.077 -0.0879,0.0698 -0.18255,0.15698 -0.0896,0.0861 -0.17304,0.17608 -0.0815,0.0869 -0.12613,0.13656 -0.0745,0.0827 -0.13905,0.15001 -0.0615,0.0693 -0.12417,0.13346 -0.0576,0.0631 -0.1222,0.13039 -0.0626,0.0642 -0.14017,0.14495 -0.0736,0.0746 -0.12443,0.12028 -0.0489,0.0426 -0.0949,0.074 -0.048,0.0345 -0.11035,0.0642 -0.0592,0.0316 -0.15471,0.0793 l 0.0145,-0.18605 q 0.0111,-0.15349 0.0637,-0.31088 0.0526,-0.15739 0.12153,-0.31308 0.0739,-0.1568 0.1521,-0.30659 0.0782,-0.14979 0.14339,-0.28612 0.21681,-0.4693 0.39096,-0.93976 0.17611,-0.47355 0.30175,-0.98363 0.0141,-0.0561 0.0523,-0.0752 0.0432,-0.0202 0.0831,-0.008 0.0418,0.009 0.0679,0.0433 0.0292,0.0359 0.017,0.089 -0.12537,0.52326 -0.32786,0.99735 -0.19745,0.47297 -0.42015,0.95153 -0.1032,0.21627 -0.20948,0.43058 -0.10122,0.21319 -0.16963,0.44296 z"
                   style="font-style:normal;font-variant:normal;font-weight:normal;font-stretch:normal;font-size:6.40331173px;font-family:Hashtag;-inkscape-font-specification:Hashtag;text-align:center;text-anchor:middle;fill:#faffff;fill-opacity:1;stroke-width:0.6003105"
                   id="path879" />
                <path
                   d="m 259.65887,131.72231 q -0.0441,0.11727 -0.11737,0.21942 -0.0684,0.10059 -0.14654,0.19614 -0.0749,0.0972 -0.15146,0.19771 -0.0749,0.0972 -0.13195,0.20778 -0.0571,0.11055 -0.0876,0.19361 -0.0305,0.0831 -0.0579,0.176 -0.0204,0.0554 -0.0647,0.0695 -0.0428,0.0191 -0.0852,0.005 -0.0391,-0.0119 -0.0631,-0.0532 -0.0257,-0.038 -0.0103,-0.0918 0.0324,-0.10268 0.0663,-0.19226 0.0339,-0.0896 0.0977,-0.21313 0.0554,-0.10729 0.12702,-0.2062 0.0749,-0.0972 0.14811,-0.19121 0.0749,-0.0972 0.1416,-0.19456 0.0684,-0.10058 0.11234,-0.20966 0.0203,-0.0554 0.0647,-0.0695 0.0493,-0.0157 0.09,0.001 0.0424,0.0136 0.0647,0.0581 0.024,0.0412 0.004,0.0966 z m 0.34478,-0.85146 q 0.0266,-0.0357 0.037,-0.0797 0.0136,-0.0424 0.004,-0.0883 -0.006,-0.0279 0.02,-0.0308 0.0279,-0.006 0.0358,0.0185 0.0233,0.0985 7.3e-4,0.19802 -0.0176,0.098 -0.0658,0.15135 -0.0547,0.0582 -0.10395,0.0658 -0.0459,0.009 -0.0833,-0.0142 -0.0324,-0.025 -0.0465,-0.0775 -0.0124,-0.0558 0.002,-0.12272 0.009,-0.0408 0.0351,-0.0601 0.0281,-0.0225 0.0576,-0.0238 0.0327,4.2e-4 0.062,0.0155 0.0325,0.0168 0.0452,0.048 z"
                   style="font-style:normal;font-variant:normal;font-weight:normal;font-stretch:normal;font-size:6.40331173px;font-family:Hashtag;-inkscape-font-specification:Hashtag;text-align:center;text-anchor:middle;fill:#faffff;fill-opacity:1;stroke-width:0.6003105"
                   id="path881" />
                <path
                   d="m 260.42052,132.27054 q -3.3e-4,-0.008 0.0142,-0.0137 0.0194,-0.007 0.009,-0.0118 -0.11341,-0.0511 -0.25658,-0.0274 -0.14166,0.0204 -0.27986,0.0865 -0.13486,0.0676 -0.2454,0.17029 -0.10903,0.0993 -0.15717,0.20608 -0.0226,0.05 -0.008,0.0888 0.0195,0.0369 0.0535,0.0683 0.0389,0.0296 0.0807,0.0525 0.0452,0.0244 0.0789,0.0476 0.1134,0.0511 0.23983,0.10014 0.13126,0.0472 0.2652,0.0795 0.13878,0.0305 0.27325,0.0349 0.13597,0.001 0.26063,-0.035 0.0242,-0.009 0.0319,0.0184 0.009,0.0242 -0.0184,0.0318 -0.11648,0.0358 -0.24297,0.067 -0.12316,0.0328 -0.2503,0.0477 -0.12714,0.0149 -0.25344,0.0101 -0.12478,-0.008 -0.2412,-0.0526 -0.053,-0.0159 -0.0931,-0.034 -0.0352,-0.0199 -0.0852,-0.0425 l -0.01,-0.005 q -0.0792,-0.0558 -0.14623,-0.0941 -0.0655,-0.0416 -0.12753,-0.11773 -0.0653,-0.0776 -0.0693,-0.17574 -5.8e-4,-0.0966 0.0415,-0.18999 0.0617,-0.13676 0.2061,-0.25225 0.14592,-0.11883 0.32316,-0.19142 0.17875,-0.0759 0.36312,-0.0931 0.1877,-0.0157 0.33446,0.0505 0.10674,0.0481 0.13839,0.10256 0.0365,0.0526 0.0236,0.099 -0.0129,0.0464 -0.0558,0.0792 -0.0414,0.0295 -0.0871,0.033 -0.0457,0.003 -0.0831,-0.0294 -0.034,-0.0314 -0.0273,-0.10864 z"
                   style="font-style:normal;font-variant:normal;font-weight:normal;font-stretch:normal;font-size:6.40331173px;font-family:Hashtag;-inkscape-font-specification:Hashtag;text-align:center;text-anchor:middle;fill:#faffff;fill-opacity:1;stroke-width:0.6003105"
                   id="path883" />
                <path
                   d="m 261.25717,132.65661 0.0182,-0.0284 q 0.0355,-0.0649 0.0906,-0.13047 0.0599,-0.0677 0.12843,-0.11663 0.0698,-0.0524 0.14677,-0.071 0.0816,-0.0208 0.1641,0.009 0.13057,0.0478 0.19257,0.14454 0.0633,0.0933 0.083,0.20963 0.0232,0.1176 0.0126,0.24231 -0.0106,0.12471 -0.0265,0.2319 -0.0462,0.27531 -0.10716,0.53746 -0.0609,0.26215 -0.15904,0.53015 -0.0201,0.055 -0.0645,0.0699 -0.0444,0.0149 -0.0857,-1.8e-4 -0.0378,-0.0138 -0.0621,-0.0539 -0.0243,-0.0401 -0.004,-0.095 0.0944,-0.2577 0.15023,-0.50611 0.0606,-0.25058 0.10305,-0.51558 0.01,-0.0588 0.0216,-0.14407 0.013,-0.0888 0.006,-0.17692 -0.003,-0.0869 -0.0359,-0.15733 -0.028,-0.0726 -0.10356,-0.10026 -0.0309,-0.0113 -0.071,0.013 -0.0388,0.0209 -0.0758,0.058 -0.037,0.0371 -0.0671,0.0768 -0.0301,0.0396 -0.0411,0.059 -0.0659,0.11615 -0.12276,0.2395 -0.0569,0.12336 -0.11841,0.24889 -0.0568,0.12336 -0.12745,0.24169 -0.0659,0.11614 -0.15678,0.21535 l -0.19794,-0.11922 q 0.0566,-0.15462 0.10795,-0.32676 0.056,-0.17432 0.10644,-0.35458 0.0539,-0.17901 0.10645,-0.35458 0.056,-0.17432 0.11516,-0.33581 0.0629,-0.1718 0.1439,-0.32918 0.081,-0.15737 0.16418,-0.31006 0.0879,-0.15486 0.16887,-0.31224 0.0823,-0.16082 0.14642,-0.33605 0.0101,-0.0275 0.0341,-0.0187 0.0275,0.0101 0.0174,0.0376 -0.12832,0.35047 -0.24314,0.67471 -0.11012,0.32206 -0.23592,0.66566 -0.0327,0.0893 -0.0645,0.1868 -0.0283,0.0987 -0.058,0.20088 z"
                   style="font-style:normal;font-variant:normal;font-weight:normal;font-stretch:normal;font-size:6.40331173px;font-family:Hashtag;-inkscape-font-specification:Hashtag;text-align:center;text-anchor:middle;fill:#faffff;fill-opacity:1;stroke-width:0.6003105"
                   id="path885" />
                <path
                   d="m 263.45297,131.37628 q -0.0171,0.0598 -0.0227,0.1191 -0.006,0.0593 -0.0302,0.10552 -0.0247,0.0462 -0.0307,0.094 -0.003,0.0487 -0.0227,0.0925 -0.11232,0.27232 -0.21303,0.49087 -0.0972,0.21955 -0.19237,0.43207 -0.0906,0.21002 -0.17377,0.4336 -0.0831,0.22359 -0.16479,0.5085 -0.0202,0.0704 -0.0378,0.14522 -0.0177,0.0749 -0.0137,0.14072 0.005,0.0623 0.0396,0.11413 0.0356,0.0483 0.12006,0.0725 0.0985,0.0282 0.18696,0.0117 0.093,-0.019 0.17095,-0.0652 0.0825,-0.0487 0.14686,-0.11396 0.0689,-0.0678 0.1122,-0.13913 0.0206,-0.0322 0.0483,-0.0356 0.0322,-0.006 0.0583,0.009 0.0261,0.0151 0.0356,0.0483 0.0105,0.0297 -0.0101,0.0618 -0.0584,0.0975 -0.14442,0.19841 -0.085,0.0974 -0.19415,0.17273 -0.10461,0.0728 -0.22828,0.10585 -0.11914,0.0305 -0.2528,-0.008 -0.14773,-0.0423 -0.22305,-0.12484 -0.0718,-0.0815 -0.0948,-0.18705 -0.022,-0.10908 -0.006,-0.2302 0.0192,-0.12011 0.0545,-0.24321 0.0827,-0.28843 0.17033,-0.51453 0.0912,-0.22509 0.18885,-0.43308 0.0987,-0.21151 0.20393,-0.43257 0.10875,-0.22005 0.22308,-0.4994 0.0211,-0.0472 0.0614,-0.0814 0.0413,-0.0377 0.0659,-0.0839 0.0247,-0.0462 0.0624,-0.0849 0.0377,-0.0387 0.0539,-0.0949 0.008,-0.0281 0.0327,-0.0211 0.0281,0.008 0.0201,0.0362 z m 0.192,1.1627 -0.0487,-0.0292 0.0577,0.10409 -0.28844,-0.056 0.0151,5.1e-4 q -0.16081,-0.0233 -0.30303,-0.045 -0.13769,-0.0242 -0.2759,-0.0334 -0.1372,-0.0127 -0.28045,-0.004 -0.14325,0.008 -0.30512,0.042 -0.0608,0.013 -0.098,-0.0167 -0.0362,-0.0332 -0.0472,-0.0744 -0.006,-0.0437 0.0126,-0.0839 0.0237,-0.0427 0.081,-0.0567 0.18248,-0.0391 0.33628,-0.0445 0.1538,-0.005 0.29804,0.009 0.14876,0.0122 0.29701,0.0395 0.15277,0.0248 0.32765,0.0521 l 0.27785,0.10629 0.0567,0.10761 -0.0603,-0.002 q -0.008,0.0281 -0.0362,0.0201 -0.0246,-0.007 -0.0166,-0.0352 z"
                   style="font-style:normal;font-variant:normal;font-weight:normal;font-stretch:normal;font-size:6.40331173px;font-family:Hashtag;-inkscape-font-specification:Hashtag;text-align:center;text-anchor:middle;fill:#faffff;fill-opacity:1;stroke-width:0.6003105"
                   id="path887" />
                <path
                   d="m 263.61475,133.82997 q 0.0121,0.0323 0.0358,0.0259 0.0273,-0.006 0.0596,8.5e-4 0.11835,0.024 0.24754,0.0128 0.13278,-0.0105 0.23414,-0.087 0.0568,-0.0408 0.0863,-0.0759 0.0331,-0.0344 0.0447,-0.0918 0.0123,-0.061 -0.0293,-0.0768 -0.038,-0.0152 -0.0882,-0.0253 -0.0825,-0.0167 -0.1514,-0.008 -0.0646,0.006 -0.14862,0.0334 -0.0639,0.0207 -0.13004,0.0708 -0.0618,0.0472 -0.11578,0.11097 -0.0496,0.0609 -0.0864,0.13184 -0.036,0.0674 -0.0484,0.12834 -0.0218,0.10759 0.0175,0.1902 0.0436,0.0798 0.11306,0.14234 0.0738,0.0597 0.16194,0.1037 0.0889,0.0404 0.16489,0.0707 0.0344,0.0144 0.0631,0.0202 0.0789,0.016 0.1794,-0.001 0.10481,-0.0199 0.20608,-0.0591 0.10127,-0.0392 0.18678,-0.0929 0.0898,-0.0565 0.13876,-0.11379 0.0194,-0.0222 0.038,-0.004 0.0229,0.0158 0.004,0.038 -0.0835,0.0988 -0.16693,0.19768 -0.0799,0.0996 -0.17333,0.17399 -0.0891,0.0716 -0.20403,0.10431 -0.1113,0.0335 -0.25834,0.004 -0.0502,-0.0102 -0.0911,-0.0296 -0.0416,-0.0159 -0.0903,-0.0332 -0.11187,-0.0376 -0.21288,-0.11027 -0.1003,-0.0763 -0.17399,-0.17333 -0.0694,-0.0999 -0.105,-0.2191 -0.0313,-0.12207 -0.005,-0.25118 0.0167,-0.0825 0.0714,-0.16847 0.0547,-0.086 0.13025,-0.16404 0.0755,-0.0781 0.16176,-0.13526 0.0906,-0.0601 0.17457,-0.0879 0.0962,-0.0328 0.1838,-0.0412 0.0883,-0.012 0.19947,0.0105 0.0646,0.0131 0.12049,0.0318 0.0559,0.0188 0.0939,0.0526 0.0415,0.0345 0.0572,0.0862 0.0157,0.0517 -3e-4,0.1306 -0.0189,0.0933 -0.0621,0.15917 -0.0425,0.0623 -0.1352,0.13317 -0.0661,0.0501 -0.14657,0.0786 -0.0761,0.0257 -0.1601,0.0348 -0.0833,0.006 -0.16792,-3.8e-4 -0.0847,-0.006 -0.16356,-0.0219 -0.0753,-0.0152 -0.10896,-0.0519 -0.0336,-0.0367 -0.0586,-0.11638 -0.009,-0.028 0.002,-0.0445 0.0115,-0.0201 0.0316,-0.0272 0.0237,-0.006 0.0445,0.002 0.0215,0.004 0.0308,0.0324 z"
                   style="font-style:normal;font-variant:normal;font-weight:normal;font-stretch:normal;font-size:6.40331173px;font-family:Hashtag;-inkscape-font-specification:Hashtag;text-align:center;text-anchor:middle;fill:#faffff;fill-opacity:1;stroke-width:0.6003105"
                   id="path889" />
                <path
                   d="m 265.12443,133.71017 q 0.0435,-0.11257 0.10749,-0.24103 0.0676,-0.128 0.15832,-0.23468 0.0907,-0.10668 0.20599,-0.17343 0.11935,-0.0699 0.26276,-0.0668 0.0663,8.9e-4 0.10893,0.0136 0.0463,0.0131 0.10802,0.0208 l 0.029,0.004 q 0.0754,0.0463 0.11893,0.0812 0.0436,0.0349 0.0676,0.0785 0.0282,0.0404 0.0359,0.0967 0.0118,0.0531 0.0168,0.13115 0.002,0.015 -0.006,0.0213 -0.008,0.006 -0.0195,0.009 -0.0113,0.002 -0.0218,-0.003 -0.006,-0.008 -0.008,-0.0231 -0.004,-0.0558 -0.0309,-0.0776 -0.0232,-0.0213 -0.0626,-0.0299 -0.0354,-0.0118 -0.0826,-0.0177 -0.0431,-0.009 -0.0876,-0.0367 -0.0472,-0.006 -0.0835,-0.0104 -0.0363,-0.005 -0.0881,-0.004 -0.11392,-0.003 -0.21056,0.0917 -0.0926,0.0917 -0.16786,0.22244 -0.0748,0.1271 -0.12518,0.26463 -0.0503,0.13753 -0.0757,0.22286 -0.0204,0.0749 -0.0426,0.13481 -0.0181,0.0567 -0.0367,0.1171 -0.0145,0.0572 -0.0335,0.12119 -0.015,0.0608 -0.0322,0.13979 -0.019,0.0935 -0.0335,0.18019 -0.0104,0.0835 -0.0313,0.19154 l -0.24871,-0.0163 q -0.015,-0.20468 0.008,-0.41936 0.0267,-0.21422 0.0516,-0.44342 0.0213,-0.20015 0.0571,-0.3985 0.0399,-0.20152 0.0684,-0.40076 l 0.005,-0.0399 0.005,-0.0399 0.13391,0.0794 -0.10393,0.005 q -0.024,0.0154 -0.0399,-0.005 -0.0154,-0.024 0.005,-0.0399 l 0.0417,-0.0981 0.1339,0.0794 q -0.0158,0.12708 -0.0321,0.25779 -0.0122,0.12754 -0.0244,0.25507 z"
                   style="font-style:normal;font-variant:normal;font-weight:normal;font-stretch:normal;font-size:6.40331173px;font-family:Hashtag;-inkscape-font-specification:Hashtag;text-align:center;text-anchor:middle;fill:#faffff;fill-opacity:1;stroke-width:0.6003105"
                   id="path891" />
                <path
                   d="m 266.56372,132.07628 q 0.0245,0.22847 0.027,0.45944 0.002,0.23097 -0.0177,0.47175 -0.0233,0.23327 -0.0394,0.46692 -0.0158,0.23001 -0.028,0.4602 -0.009,0.16808 -0.0253,0.33943 -0.0128,0.17154 0.0333,0.33887 0.0275,0.10405 0.13399,0.16832 0.11017,0.0645 0.22345,0.0705 0.0475,0.003 0.0827,-0.0396 0.0391,-0.0456 0.0698,-0.0733 0.0696,-0.0696 0.12428,-0.13265 0.0583,-0.0629 0.0808,-0.14229 0.0231,-0.0904 0.0606,-0.17633 0.0377,-0.0896 0.0576,-0.18748 0.009,-0.0288 0.0342,-0.0238 0.0254,0.005 0.0202,0.034 -0.02,0.10153 -0.0106,0.20096 0.013,0.0996 -0.0103,0.19366 -0.0229,0.0867 -0.0372,0.14826 -0.014,0.0579 -0.035,0.10807 -0.0208,0.0465 -0.0566,0.0996 -0.0356,0.0494 -0.0977,0.11574 -0.0658,0.0661 -0.1335,0.0992 -0.0679,0.0367 -0.1629,0.0317 -0.0767,-0.004 -0.17058,-0.031 -0.0902,-0.0268 -0.17536,-0.0789 -0.0815,-0.052 -0.15073,-0.1289 -0.0654,-0.0804 -0.0963,-0.18831 -0.0279,-0.0967 -0.034,-0.18868 -0.006,-0.0956 -0.001,-0.18693 0.005,-0.095 0.0137,-0.18981 0.0123,-0.0946 0.0176,-0.19327 0.0122,-0.23019 0.0465,-0.46288 0.0343,-0.23269 0.0578,-0.46961 0.0195,-0.22981 0.035,-0.45251 0.0191,-0.2225 -0.002,-0.44348 -0.005,-0.0406 0.0181,-0.065 0.0269,-0.0242 0.0564,-0.0263 0.0333,-0.006 0.0579,0.0141 0.0285,0.0162 0.0334,0.0604 z"
                   style="font-style:normal;font-variant:normal;font-weight:normal;font-stretch:normal;font-size:6.40331173px;font-family:Hashtag;-inkscape-font-specification:Hashtag;text-align:center;text-anchor:middle;fill:#faffff;fill-opacity:1;stroke-width:0.6003105"
                   id="path893" />
                <path
                   d="m 268.14465,133.75262 q -0.0294,-0.003 -0.0476,0.001 -0.0145,0.004 -0.0438,0.005 -0.10974,0.002 -0.17768,0.0735 -0.0679,0.0711 -0.10586,0.17441 -0.0379,0.10334 -0.0537,0.21715 -0.0121,0.11373 -0.0101,0.20153 0.002,0.0805 0.0399,0.1455 0.0416,0.0613 0.1049,0.10743 0.0632,0.0425 0.137,0.0701 0.0737,0.024 0.14707,0.0296 0.13568,0.0116 0.24834,-0.0239 0.11258,-0.0391 0.19157,-0.10681 0.0826,-0.0714 0.12423,-0.17116 0.0453,-0.0998 0.0427,-0.2169 -0.006,-0.25607 -0.13745,-0.41414 -0.128,-0.15814 -0.36944,-0.15269 -0.0512,0.001 -0.088,-0.005 -0.0367,-0.006 -0.0842,-0.002 -0.0328,0.004 -0.0372,-0.0284 -0.004,-0.0328 0.0284,-0.0373 0.051,-0.008 0.0871,-0.0312 0.0397,-0.0265 0.0909,-0.0277 0.16461,-0.004 0.30104,0.0408 0.13634,0.0408 0.23351,0.13014 0.10084,0.0892 0.15502,0.21976 0.0578,0.13046 0.0617,0.30239 0.004,0.17193 -0.0587,0.31974 -0.0626,0.14415 -0.17729,0.25288 -0.11475,0.10507 -0.27821,0.16 -0.1598,0.0548 -0.35409,0.0409 -0.10999,-0.008 -0.22089,-0.0572 -0.10724,-0.0488 -0.19319,-0.1274 -0.086,-0.0786 -0.14322,-0.18342 -0.0536,-0.10493 -0.0564,-0.22931 -0.002,-0.10608 0.0313,-0.23494 0.0373,-0.1326 0.10795,-0.244 0.0706,-0.11505 0.17137,-0.19052 0.10435,-0.0792 0.2397,-0.0823 0.0329,-7.5e-4 0.0515,0.01 0.0185,0.007 0.0479,0.0136 0.0146,-3.3e-4 0.0185,0.0106 0.007,0.007 0.004,0.0182 2.5e-4,0.011 -0.007,0.0185 -0.007,0.007 -0.0219,0.004 z"
                   style="font-style:normal;font-variant:normal;font-weight:normal;font-stretch:normal;font-size:6.40331173px;font-family:Hashtag;-inkscape-font-specification:Hashtag;text-align:center;text-anchor:middle;fill:#faffff;fill-opacity:1;stroke-width:0.6003105"
                   id="path895" />
                <path
                   d="m 269.43348,134.52828 -6.6e-4,-0.007 q 0.0183,-0.1633 0.0546,-0.3319 0.0399,-0.16892 0.095,-0.33187 0.0548,-0.16659 0.12577,-0.31628 0.0707,-0.15333 0.15093,-0.28181 0.0355,-0.0546 0.0865,-0.0592 0.0543,-0.009 0.0974,0.0206 0.0427,0.0255 0.0582,0.0756 0.0192,0.0497 -0.0163,0.10434 -0.074,0.11689 -0.13832,0.25863 -0.061,0.13777 -0.10985,0.28913 -0.0491,0.14771 -0.083,0.3014 -0.0339,0.15369 -0.0535,0.30242 -0.005,0.0629 -0.007,0.12554 -0.002,0.0626 -0.003,0.12887 -0.002,0.0626 -0.0143,0.1262 -0.009,0.0596 -0.0332,0.12056 l -0.23654,0.025 q -0.0718,-0.10374 -0.12706,-0.22734 -0.0519,-0.12758 -0.0972,-0.2631 -0.0417,-0.13585 -0.076,-0.27236 -0.0344,-0.13651 -0.0671,-0.2548 -0.0211,-0.0716 -0.009,-0.14245 0.0117,-0.0745 -0.009,-0.14246 -0.0165,-0.061 -0.0224,-0.12656 -0.006,-0.0692 -0.0556,-0.12724 -0.0202,-0.0202 3.6e-4,-0.0368 0.0202,-0.0202 0.0407,0.004 0.0576,0.0683 0.10659,0.12264 0.0526,0.054 0.0701,0.12593 0.0208,0.0679 0.0519,0.12758 0.0348,0.0593 0.0559,0.13089 0.0281,0.10768 0.0654,0.23658 0.041,0.12856 0.086,0.26044 z"
                   style="font-style:normal;font-variant:normal;font-weight:normal;font-stretch:normal;font-size:6.40331173px;font-family:Hashtag;-inkscape-font-specification:Hashtag;text-align:center;text-anchor:middle;fill:#faffff;fill-opacity:1;stroke-width:0.6003105"
                   id="path897" />
                <path
                   d="m 270.36915,133.57707 q -0.0295,8.8e-4 -0.047,0.007 -0.0139,0.006 -0.0428,0.0104 -0.10847,0.0169 -0.16649,0.0962 -0.058,0.0794 -0.082,0.1868 -0.024,0.10742 -0.0247,0.22231 0.003,0.11433 0.0165,0.20111 0.0124,0.0795 0.0586,0.139 0.0493,0.0553 0.1181,0.0927 0.0682,0.0338 0.14502,0.0515 0.0763,0.0141 0.14968,0.0101 0.13603,-0.006 0.24305,-0.0563 0.10647,-0.0536 0.1759,-0.13102 0.0725,-0.0816 0.10069,-0.18599 0.0318,-0.10493 0.0138,-0.22063 -0.0393,-0.25309 -0.19062,-0.39251 -0.14766,-0.13997 -0.38629,-0.10288 -0.0506,0.008 -0.0879,0.006 -0.0373,-0.002 -0.0837,0.009 -0.032,0.009 -0.0407,-0.0233 -0.009,-0.032 0.0233,-0.0406 0.0495,-0.0151 0.0823,-0.0424 0.0358,-0.0315 0.0865,-0.0394 0.1627,-0.0253 0.30379,9.1e-4 0.14052,0.0226 0.24858,0.0984 0.11167,0.0752 0.18252,0.19751 0.0745,0.12174 0.10088,0.29167 0.0264,0.16993 -0.0162,0.32467 -0.0432,0.15113 -0.14257,0.27397 -0.1,0.11922 -0.25479,0.19513 -0.15122,0.0754 -0.34566,0.0871 -0.11015,0.006 -0.22649,-0.0277 -0.11272,-0.0343 -0.20825,-0.10094 -0.0955,-0.0666 -0.16605,-0.16303 -0.0669,-0.097 -0.086,-0.21992 -0.0163,-0.10485 1.9e-4,-0.23702 0.0195,-0.13634 0.075,-0.25605 0.0549,-0.12333 0.14489,-0.21138 0.0931,-0.0922 0.22682,-0.11302 0.0325,-0.005 0.0523,0.003 0.0192,0.004 0.0493,0.007 0.0145,-0.002 0.0198,0.008 0.008,0.006 0.006,0.0175 0.002,0.0109 -0.004,0.0192 -0.006,0.008 -0.0211,0.007 z"
                   style="font-style:normal;font-variant:normal;font-weight:normal;font-stretch:normal;font-size:6.40331173px;font-family:Hashtag;-inkscape-font-specification:Hashtag;text-align:center;text-anchor:middle;fill:#faffff;fill-opacity:1;stroke-width:0.6003105"
                   id="path900" />
                <path
                   d="m 273.52626,132.98173 q -0.0585,-0.017 -0.0989,0.0141 -0.0369,0.0301 -0.093,0.0468 -0.1473,0.0438 -0.23306,0.15332 -0.0858,0.1095 -0.12499,0.24715 -0.0357,0.1366 -0.029,0.28732 0.009,0.14617 0.0456,0.26892 0.0209,0.0701 0.045,0.1126 0.0276,0.0414 0.0626,0.0692 0.0375,0.0232 0.0809,0.0408 0.0459,0.0131 0.10892,0.0325 0.0217,0.009 0.0389,0.0152 0.0196,0.002 0.0442,-0.006 0.0351,-0.0104 0.0583,-0.0479 0.0267,-0.0385 0.0444,-0.0819 0.0166,-0.0469 0.0261,-0.0918 0.009,-0.0483 0.0107,-0.0795 0.036,-0.25121 0.002,-0.50819 -0.032,-0.26152 -0.1092,-0.52105 l 0.22095,-0.0657 q 0.0543,0.18237 0.11173,0.33706 0.0564,0.15118 0.11428,0.29431 0.0578,0.14312 0.11115,0.28378 0.0533,0.14066 0.10025,0.29848 0.0657,0.22095 0.0957,0.43726 0.03,0.21631 -0.007,0.39918 -0.0327,0.18532 -0.14725,0.3263 -0.11457,0.14098 -0.34254,0.2088 -0.1508,0.0449 -0.25935,8.1e-4 -0.10854,-0.0441 -0.16999,-0.14794 -0.0241,-0.0425 -0.0135,-0.0838 0.0152,-0.0389 0.0471,-0.0598 0.0365,-0.0185 0.0757,-0.0149 0.0438,0.006 0.0724,0.051 0.023,0.0389 0.0686,0.0254 0.0456,-0.0136 0.1017,-0.0303 0.16834,-0.0501 0.24359,-0.15645 0.0752,-0.10637 0.0868,-0.24724 0.0151,-0.14191 -0.0224,-0.30636 -0.0329,-0.162 -0.082,-0.32683 -0.0146,-0.0491 -0.0271,-0.0912 -0.0136,-0.0456 -0.0306,-0.0901 l -7.5e-4,0.0231 q -0.009,0.0715 -0.0315,0.15063 -0.0187,0.0781 -0.0557,0.14637 -0.0369,0.0683 -0.0931,0.12316 -0.0527,0.0539 -0.12985,0.0768 -0.0807,0.024 -0.14513,0.0126 -0.0634,-0.008 -0.1366,-0.0357 -0.0893,-0.0307 -0.15092,-0.0582 -0.0581,-0.0285 -0.10182,-0.0728 -0.0437,-0.0443 -0.0776,-0.10672 -0.0314,-0.067 -0.0616,-0.16872 -0.0469,-0.15782 -0.0434,-0.3383 0.006,-0.18504 0.067,-0.35208 0.061,-0.16703 0.18223,-0.29853 0.12472,-0.13254 0.3141,-0.18889 0.0702,-0.0209 0.12267,0.002 0.055,0.018 0.13063,0.0413 0.0252,0.008 0.0185,0.0365 -0.008,0.0252 -0.034,0.0139 z"
                   style="font-style:normal;font-variant:normal;font-weight:normal;font-stretch:normal;font-size:6.40331173px;font-family:Hashtag;-inkscape-font-specification:Hashtag;text-align:center;text-anchor:middle;fill:#faffff;fill-opacity:1;stroke-width:0.6003105"
                   id="path902" />
                <path
                   d="m 275.19717,135.05583 q 0.0355,-0.01 0.082,-0.0624 0.0512,-0.0507 0.0687,-0.0769 0.0958,-0.18105 0.0728,-0.37583 -0.0195,-0.19608 -0.0999,-0.40822 -0.07,-0.18477 -0.16266,-0.35704 -0.0927,-0.17228 -0.18874,-0.34326 -0.0961,-0.17098 -0.18745,-0.33983 -0.0927,-0.17227 -0.16266,-0.35704 l -0.0817,-0.21557 q 0.0708,0.0319 0.12739,0.0574 0.0587,0.0208 0.1051,0.0502 0.0498,0.0281 0.0897,0.0716 0.04,0.0436 0.0706,0.11411 0.0242,0.0534 0.0415,0.10949 0.0173,0.056 0.0381,0.11079 0.0428,0.11292 0.0591,0.25933 0.0185,0.14169 -0.002,0.28266 -0.0222,0.13755 -0.0964,0.25172 -0.0741,0.11416 -0.211,0.16602 -0.13002,0.0493 -0.25259,0.0253 -0.12256,-0.024 -0.22859,-0.0973 -0.10603,-0.0733 -0.18821,-0.18694 -0.0822,-0.11364 -0.13145,-0.24366 -0.0298,-0.0787 -0.0339,-0.15149 -6.8e-4,-0.0741 -0.0103,-0.14086 -0.01,-0.0668 -8.9e-4,-0.13662 0.009,-0.0698 -0.001,-0.14817 -0.002,-0.0265 0.0243,-0.0288 0.0253,-0.006 0.0288,0.0243 0.009,0.0749 0.0334,0.13993 0.0246,0.065 0.033,0.12836 0.0118,0.0621 0.0419,0.12106 0.0323,0.0543 0.0595,0.12613 0.035,0.0924 0.0918,0.18042 0.0555,0.0846 0.12853,0.14303 0.073,0.0584 0.15959,0.0804 0.0866,0.022 0.17897,-0.013 0.0719,-0.0272 0.11872,-0.0998 0.0456,-0.0759 0.0637,-0.1728 0.0202,-0.10157 0.009,-0.21459 -0.0128,-0.11644 -0.0543,-0.22594 -0.0117,-0.0308 -0.0251,-0.0766 -0.0147,-0.0492 -0.0329,-0.0971 -0.0181,-0.0479 -0.044,-0.0851 -0.0224,-0.0385 -0.0554,-0.0533 l 0.12935,-0.12335 q 0.0752,0.19846 0.17127,0.36943 0.0961,0.17098 0.19641,0.33252 0.10033,0.16155 0.19382,0.32568 0.0948,0.16756 0.16739,0.35917 0.0531,0.14029 0.0905,0.29048 0.0386,0.15362 0.0366,0.30309 0.001,0.14817 -0.0521,0.28582 -0.0522,0.14108 -0.17729,0.25499 -0.14174,0.13196 -0.27929,0.10973 -0.13282,-0.0201 -0.25607,-0.11819 -0.11852,-0.096 -0.22005,-0.22966 -0.0981,-0.135 -0.16695,-0.23412 -0.0146,-0.0179 -0.01,-0.0355 0.005,-0.0176 0.0162,-0.0296 0.0158,-0.01 0.0321,-0.008 0.021,0.004 0.0356,0.0217 0.1192,0.17004 0.275,0.27144 0.15581,0.1014 0.34302,0.12046 z"
                   style="font-style:normal;font-variant:normal;font-weight:normal;font-stretch:normal;font-size:6.40331173px;font-family:Hashtag;-inkscape-font-specification:Hashtag;text-align:center;text-anchor:middle;fill:#faffff;fill-opacity:1;stroke-width:0.6003105"
                   id="path904" />
                <path
                   d="m 275.91872,132.30461 q -0.0185,-0.23574 0.0626,-0.4268 0.0795,-0.19434 0.30914,-0.30776 0.0525,-0.0259 0.0966,-0.0192 0.0474,0.005 0.0817,0.0331 0.0359,0.0231 0.0651,0.0658 0.0309,0.0378 0.0503,0.0772 0.0924,0.17063 0.17014,0.34447 0.0794,0.16894 0.19643,0.32333 0.0488,0.0657 0.12208,0.1315 0.0717,0.0625 0.15494,0.10713 0.0865,0.043 0.1781,0.0549 0.0916,0.0119 0.17687,-0.0302 0.0164,-0.008 0.036,-0.001 0.0196,0.007 0.0246,-0.008 0.002,-0.005 0.0247,-0.0408 0.0264,-0.0375 0.0281,-0.0588 0.007,-0.036 0.0165,-0.0327 0.0131,0.002 0.0228,0.0214 0.0146,0.0214 0.0227,0.0459 0.008,0.0246 0.01,0.0361 -0.003,0.018 0.005,0.0344 0.008,0.0164 0.005,0.0344 -0.0117,0.0425 -0.025,0.0899 -0.0117,0.0507 -0.0708,0.0798 -0.12139,0.06 -0.25554,0.0528 -0.13415,-0.007 -0.26153,-0.0586 -0.12577,-0.0481 -0.23502,-0.12878 -0.10758,-0.0856 -0.17749,-0.1776 -0.12193,-0.16423 -0.20615,-0.34301 -0.0826,-0.18368 -0.17824,-0.36088 -0.006,-0.0131 -0.0146,-0.0295 -0.008,-0.0164 -0.0212,-0.0263 l 0.007,0.005 q 0.007,-0.003 0.01,0.003 0.003,-0.002 0.0131,0.002 0.007,-0.003 0.0164,8e-5 0.007,-0.003 0.0115,-0.002 l 0.01,-0.005 q -0.1181,0.0583 -0.17091,0.14971 -0.0528,0.0914 -0.0648,0.19933 -0.0103,0.10304 0.009,0.21604 0.0224,0.11139 0.0481,0.21297 0.0257,0.0934 0.0531,0.1819 0.0274,0.0885 0.0499,0.17534 l -0.21491,0.11022 q -0.0878,-0.1117 -0.16904,-0.23483 -0.0828,-0.12641 -0.16239,-0.25443 -0.0179,-0.0279 -0.0504,-0.0772 -0.0292,-0.0509 -0.0633,-0.1034 -0.0341,-0.0525 -0.0715,-0.0953 -0.0341,-0.0444 -0.0602,-0.0641 l 0.005,0.002 q 0.005,0.002 0.008,4e-5 0.003,-0.002 0.008,4e-5 0.005,0.002 0.008,4e-5 0.003,-0.002 0.008,4e-5 0.0164,-0.008 0.0246,-0.008 -0.0263,0.0212 -0.0397,0.0849 -0.015,0.0605 -0.0236,0.13407 -0.007,0.0687 -0.007,0.13415 -0.002,0.0622 -4.4e-4,0.09 0.0125,0.12443 0.0299,0.24233 0.0207,0.11629 0.0529,0.23099 0.0322,0.11471 0.079,0.23439 0.0469,0.11969 0.11169,0.25091 l -0.22637,0.11181 q -0.12963,-0.26246 -0.24638,-0.4823 -0.11508,-0.22475 -0.23985,-0.47736 -0.034,-0.0689 -0.0647,-0.15578 -0.0274,-0.0885 -0.0926,-0.13791 -0.031,-0.0214 -0.0325,-0.0493 -0.002,-0.0278 0.0117,-0.0507 0.0165,-0.0245 0.046,-0.0309 0.0279,-0.01 0.0589,0.0117 0.0946,0.0675 0.14983,0.14637 0.0569,0.0739 0.10715,0.17562 l 0.013,0.0262 -0.003,-0.0229 q -0.006,-0.0704 -0.002,-0.1702 0.002,-0.10308 0.0255,-0.20442 0.0218,-0.10463 0.0664,-0.18786 0.043,-0.0865 0.11842,-0.12379 0.0689,-0.034 0.13257,-0.004 0.067,0.0281 0.12395,0.0857 0.057,0.0576 0.10082,0.12977 0.0455,0.0673 0.0764,0.11329 z"
                   style="font-style:normal;font-variant:normal;font-weight:normal;font-stretch:normal;font-size:6.40331173px;font-family:Hashtag;-inkscape-font-specification:Hashtag;text-align:center;text-anchor:middle;fill:#faffff;fill-opacity:1;stroke-width:0.6003105"
                   id="path906" />
                <path
                   d="m 276.69312,131.32491 q -0.026,-0.014 -0.024,-0.0109 0.005,0.001 -0.0175,0.007 l -0.009,0.006 q -0.031,0.0194 -0.0504,0.0228 -0.0194,0.003 -0.0295,0.001 -0.0101,-0.002 0.005,-0.0333 0.004,-0.007 -0.006,-0.009 -0.0101,-0.002 -0.006,-0.009 0.002,-0.0101 -0.005,-0.0144 -0.007,-0.004 -0.005,-0.0144 0.008,-0.0221 -0.004,-0.0407 -0.009,-0.0206 4e-5,-0.0345 l 0.0917,-0.10887 0.0755,0.12111 q 0.091,0.14595 0.17611,0.28259 0.0851,0.13663 0.17341,0.27133 0.0894,0.12966 0.18583,0.2636 0.0945,0.13083 0.2091,0.26634 0.0147,0.0167 0.0302,0.0415 0.0186,0.0229 0.0341,0.0478 l 0.0108,0.0105 q -0.0101,-0.002 -0.0221,-0.008 -0.009,-0.007 -0.0217,-0.021 -0.002,0.10046 -0.0506,0.12638 -0.0454,0.024 -0.12566,-0.008 0.007,0.0175 0.006,0.0306 7.7e-4,0.008 0.005,0.0144 -0.0267,-0.0567 -0.0658,-0.10558 -0.0379,-0.054 -0.0708,-0.10676 -0.0619,-0.0994 -0.11342,-0.17507 -0.0503,-0.0807 -0.10721,-0.17894 -0.0898,-0.15099 -0.15626,-0.33376 -0.0684,-0.18587 -0.0821,-0.36701 -0.0157,-0.18426 0.0419,-0.34088 0.0588,-0.16166 0.22646,-0.26616 0.19253,-0.11999 0.35113,-0.0938 0.1586,0.0262 0.29034,0.1338 0.12979,0.1045 0.23781,0.25707 0.10918,0.14752 0.20289,0.27021 0.0546,0.0738 0.10918,0.14752 0.0546,0.0738 0.1154,0.14366 0.062,0.0649 0.13016,0.12583 0.0682,0.061 0.15113,0.10414 0.0101,0.002 0.019,0.01 0.009,0.007 0.019,0.01 0.005,0.001 0.006,0.009 -0.001,0.005 0.002,0.003 0.0279,-0.0174 0.0555,-0.0216 0.0275,-0.004 0.0384,-0.0283 0.0183,-0.0329 0.0505,-0.0573 0.0334,-0.0294 0.0559,-0.0693 0.0159,-0.0229 0.0388,-0.007 0.024,0.0109 0.01,0.0369 -0.0245,0.0368 -0.0187,0.0807 0.0108,0.045 -0.007,0.0779 -0.0218,0.0481 -0.0366,0.10041 -0.0117,0.0504 -0.0645,0.0833 -0.0776,0.0484 -0.1703,0.0242 -0.0907,-0.0211 -0.18142,-0.0766 -0.0907,-0.0556 -0.16468,-0.12588 -0.0759,-0.0734 -0.11814,-0.12039 -0.11387,-0.12736 -0.21221,-0.2644 -0.0972,-0.14209 -0.20054,-0.2803 -0.0488,-0.0644 -0.11153,-0.13744 -0.0596,-0.0749 -0.13326,-0.1239 -0.0756,-0.0521 -0.15856,-0.0607 -0.0849,-0.0117 -0.18119,0.0482 -0.11179,0.0697 -0.14645,0.17318 -0.0346,0.10352 -0.0181,0.22688 0.0165,0.12336 0.0734,0.25608 0.0549,0.12961 0.12418,0.25459 0.0693,0.12498 0.137,0.23367 0.0708,0.10675 0.11729,0.18128 0.0174,0.028 0.0476,0.0695 0.0283,0.0384 0.0554,0.0819 0.0252,0.0404 0.0441,0.0846 0.017,0.0411 0.017,0.0757 -4.5e-4,0.0477 -0.0288,0.0783 -0.0233,0.0318 -0.0633,0.0437 -0.0369,0.01 -0.0791,-0.002 -0.0392,-0.0144 -0.0694,-0.0559 l -0.0167,-0.0198 q -0.0147,-0.0167 -0.0283,-0.0384 -0.0136,-0.0217 -0.0263,-0.0353 -0.11657,-0.13862 -0.2087,-0.27953 -0.0921,-0.14091 -0.17417,-0.27948 -0.0809,-0.14361 -0.16176,-0.28722 -0.0828,-0.14672 -0.1757,-0.29577 0.0396,0.001 0.0578,0.003 0.0182,0.002 0.0333,0.005 0.0132,4.1e-4 0.0264,8.1e-4 0.0132,4.1e-4 0.0396,0.001 z"
                   style="font-style:normal;font-variant:normal;font-weight:normal;font-stretch:normal;font-size:6.40331173px;font-family:Hashtag;-inkscape-font-specification:Hashtag;text-align:center;text-anchor:middle;fill:#faffff;fill-opacity:1;stroke-width:0.6003105"
                   id="path908" />
                <path
                   d="m 278.75956,130.15536 q -0.0239,-0.0324 -0.0503,-0.0311 -0.0264,0.001 -0.0705,0.0338 -0.106,0.0782 -0.13569,0.22287 -0.0319,0.14172 -0.009,0.30217 0.0207,0.15751 0.0809,0.31314 0.0632,0.15345 0.13704,0.25356 0.0152,0.0206 0.0347,0.0471 0.0196,0.0265 0.0442,0.0538 0.0254,0.0222 0.0538,0.0421 0.0262,0.017 0.0555,0.0136 0.0177,-0.013 0.026,-0.051 0.009,-0.0431 0.0131,-0.087 0.005,-0.049 0.006,-0.0907 -0.001,-0.0446 -1.9e-4,-0.0681 -5.7e-4,-0.20418 -0.0103,-0.36526 -0.0119,-0.16403 -0.0668,-0.33718 -0.0115,-0.0279 -0.0214,-0.066 -0.009,-0.0301 -0.0214,-0.066 -0.0151,-0.0389 -0.0272,-0.08 -0.0151,-0.0389 -0.0287,-0.0697 -0.0129,-0.036 -0.0244,-0.0639 0.006,-0.004 0.0206,-0.0152 0.0125,-0.0138 0.0265,-0.0196 0.0169,-0.008 0.0344,-0.003 0.0183,1.4e-4 0.0306,0.0229 -0.006,0.004 0.007,0.004 0.011,-0.004 0.0264,-0.001 0.0183,1.4e-4 0.038,0.008 0.0175,0.005 0.0276,0.0251 0.0376,0.0632 0.0759,0.12136 0.0413,0.0559 0.06,0.0876 0.0591,0.11098 0.12554,0.22567 0.0672,0.10958 0.1367,0.2038 0.0434,0.0589 0.0841,0.10166 0.0385,0.0398 0.0968,0.0696 0.10204,0.052 0.20794,0.0785 0.10374,0.0235 0.20434,-0.0189 0.0279,-0.0115 0.0372,0.0135 0.0123,0.0228 -0.0156,0.0343 -0.0676,0.0317 -0.13593,0.0684 -0.0684,0.0368 -0.14028,0.0626 -0.0668,0.0265 -0.13858,0.034 -0.071,0.002 -0.14173,-0.0319 -0.0853,-0.0417 -0.14625,-0.10581 -0.061,-0.0642 -0.12396,-0.14955 -0.0738,-0.10011 -0.13872,-0.22504 -0.0619,-0.1271 -0.1254,-0.24396 -0.0137,-0.0309 -0.0461,-0.0933 -0.0324,-0.0625 -0.07,-0.1257 -0.0548,-0.10509 -0.0541,-0.19656 0.004,-0.0936 0.0272,-0.11102 0.0118,-0.009 0.033,-0.0107 0.0242,-0.004 0.0541,0.006 0.0277,0.007 0.0583,0.0297 0.0305,0.0229 0.05,0.0677 0.0417,0.0874 0.0747,0.18135 0.0359,0.0918 0.0658,0.18787 0.14287,0.44024 0.11429,0.90692 -0.005,0.0673 -0.0209,0.13815 -0.013,0.0687 -0.0449,0.12405 -0.0297,0.0583 -0.0849,0.0945 -0.05,0.0369 -0.12912,0.0407 -0.0864,4e-5 -0.15925,-0.0371 -0.0699,-0.0393 -0.12579,-0.10272 -0.0276,-0.0251 -0.0464,-0.0567 -0.0188,-0.0316 -0.0448,-0.0669 -0.0912,-0.12368 -0.14901,-0.31295 -0.0578,-0.18927 -0.0621,-0.38617 -0.006,-0.19984 0.0483,-0.37211 0.0526,-0.17522 0.18513,-0.27297 0.053,-0.0391 0.0941,-0.0512 0.0411,-0.0121 0.0732,5.8e-4 0.035,0.0105 0.0619,0.0407 0.0298,0.028 0.058,0.0663 0.0152,0.0206 0.0121,0.0411 -0.005,0.0175 -0.0229,0.0306 -0.0147,0.0109 -0.033,0.0107 -0.0205,-0.003 -0.0357,-0.0237 z m -0.52919,-0.35987 q -0.004,0.007 3.4e-4,0.0498 0.007,0.0403 0.004,0.0425 -0.0508,0.1284 -0.11334,0.26548 -0.0596,0.13492 -0.0687,0.26438 -0.002,0.0285 -0.0302,0.0268 -0.0285,-0.002 -0.0247,-0.0273 0.0106,-0.13969 0.0308,-0.29102 0.0181,-0.15427 0.0726,-0.28996 0.007,-0.0146 0.042,-0.0355 0.0324,-0.0239 0.0428,-0.0406 0.0163,-0.0211 0.0374,-0.005 0.024,0.0141 0.007,0.0403 z"
                   style="font-style:normal;font-variant:normal;font-weight:normal;font-stretch:normal;font-size:6.40331173px;font-family:Hashtag;-inkscape-font-specification:Hashtag;text-align:center;text-anchor:middle;fill:#faffff;fill-opacity:1;stroke-width:0.6003105"
                   id="path910" />
                <path
                   d="m 280.40187,128.90063 q -0.062,0.0403 -0.11712,0.094 -0.0548,0.0485 -0.10498,0.10773 -0.0499,0.054 -0.10013,0.11321 -0.0499,0.054 -0.10467,0.10256 -0.0712,0.0631 -0.15302,0.13076 -0.0815,0.0625 -0.18334,0.0745 -0.0471,0.008 -0.0741,-0.0174 -0.0294,-0.0277 -0.0352,-0.0617 -0.003,-0.0365 0.0171,-0.069 0.0228,-0.0349 0.07,-0.0424 0.0182,-0.001 0.0456,-0.0258 0.0301,-0.0267 0.063,-0.0558 0.0304,-0.0319 0.0581,-0.0613 0.0253,-0.0322 0.039,-0.0443 0.0849,-0.0752 0.15458,-0.15659 0.0697,-0.0813 0.14394,-0.15204 0.0718,-0.0734 0.15819,-0.13044 0.0891,-0.0594 0.21283,-0.0909 l 0.11581,-0.0293 q 0.0178,0.0918 0.0244,0.1544 0.009,0.0602 0.003,0.11426 -0.003,0.0516 -0.0196,0.11028 -0.0165,0.0586 -0.0476,0.14488 -0.0729,0.22111 -0.14013,0.47627 -0.0645,0.25272 -0.0936,0.47907 -0.01,0.0772 -0.0224,0.15676 -0.01,0.0772 -0.004,0.15527 l 0.0493,-0.0437 q 0.056,-0.0692 0.0983,-0.12627 0.0423,-0.0571 0.0871,-0.1114 0.0423,-0.0571 0.0846,-0.11414 0.0423,-0.0571 0.0983,-0.12627 0.0195,-0.0222 0.0569,-0.0847 0.035,-0.0653 0.0831,-0.13238 0.077,-0.11718 0.17375,-0.17357 0.097,-0.0616 0.1529,-0.0426 0.0407,0.0128 0.0488,0.0937 0.008,0.0808 -0.0367,0.17923 -0.0207,0.0428 -0.0639,0.0713 -0.0429,0.0233 -0.0517,0.041 -0.009,0.0228 -0.0295,0.0164 -0.0429,0.0674 -0.0773,0.12236 -0.0344,0.055 -0.0487,0.0774 -0.098,0.12111 -0.19602,0.24222 -0.0956,0.12385 -0.1936,0.24496 l -0.30362,0.26425 q -0.0482,-0.0599 -0.0819,-0.10343 -0.0334,-0.0487 -0.054,-0.094 -0.0203,-0.0505 -0.0272,-0.10791 -0.009,-0.0602 -0.007,-0.14039 0.002,-0.0751 0.019,-0.14401 0.0174,-0.0741 0.0245,-0.14886 0.0271,-0.23425 0.10005,-0.49942 0.0706,-0.26791 0.14927,-0.49905 0.0192,-0.061 0.0394,-0.1376 z"
                   style="font-style:normal;font-variant:normal;font-weight:normal;font-stretch:normal;font-size:6.40331173px;font-family:Hashtag;-inkscape-font-specification:Hashtag;text-align:center;text-anchor:middle;fill:#faffff;fill-opacity:1;stroke-width:0.6003105"
                   id="path912" />
                <path
                   d="m 280.78509,128.21919 q 0.0984,0.0775 0.1736,0.17828 0.0752,0.0956 0.14259,0.19902 0.07,0.1008 0.1426,0.20419 0.07,0.10081 0.1581,0.18865 0.0881,0.0878 0.15803,0.14207 0.0699,0.0542 0.15022,0.10846 0.0466,0.0362 0.0467,0.0827 0.005,0.0466 -0.0206,0.0828 -0.0232,0.0337 -0.0698,0.0441 -0.044,0.013 -0.0906,-0.018 -0.0881,-0.062 -0.16318,-0.12137 -0.0751,-0.0594 -0.17358,-0.15757 -0.0855,-0.0853 -0.15809,-0.18348 -0.07,-0.1008 -0.13741,-0.19902 -0.07,-0.10081 -0.14259,-0.19385 -0.0752,-0.0956 -0.16583,-0.17052 -0.0466,-0.0362 -0.0467,-0.0827 -8e-5,-0.0517 0.0283,-0.0854 0.0258,-0.0363 0.075,-0.0441 0.0466,-0.0104 0.0932,0.0257 z m -0.70719,-0.5863 q -0.0259,-0.0362 -0.0648,-0.0594 -0.0363,-0.0258 -0.0828,-0.0309 -0.0285,-0.003 -0.0233,-0.0284 0.003,-0.0285 0.0284,-0.0285 0.10092,0.008 0.18896,0.0592 0.088,0.0465 0.12435,0.10849 0.0389,0.0698 0.0312,0.11897 -0.005,0.0466 -0.0387,0.0751 -0.0336,0.0233 -0.0879,0.0208 -0.0569,-0.005 -0.11649,-0.0386 -0.0362,-0.0206 -0.0466,-0.0517 -0.013,-0.0336 -0.005,-0.0621 0.0103,-0.0311 0.0336,-0.0544 0.0258,-0.0259 0.0595,-0.0285 z"
                   style="font-style:normal;font-variant:normal;font-weight:normal;font-stretch:normal;font-size:6.40331173px;font-family:Hashtag;-inkscape-font-specification:Hashtag;text-align:center;text-anchor:middle;fill:#faffff;fill-opacity:1;stroke-width:0.6003105"
                   id="path914" />
                <path
                   d="m 282.57104,128.21016 q -5.1e-4,-0.0103 0.004,-0.0158 0.002,-0.008 0.002,-0.0182 l -0.003,-0.002 q -0.003,-0.008 -0.002,-0.031 -0.001,-0.0258 0.003,-0.0468 0.004,-0.0209 0.0142,-0.0266 0.0125,-0.008 0.0296,0.0219 0.003,0.008 0.0431,0.0341 0.0402,0.0265 0.0486,0.0391 0.009,0.0229 0.0178,0.0457 0.009,0.0229 0.0126,0.046 0.006,0.0256 0.003,0.0517 -0.001,0.0234 -0.0236,0.0478 -0.0462,0.0618 -0.12912,0.0607 l -0.0182,-0.002 q -0.0337,-9.4e-4 -0.0913,-0.0137 -0.0603,-0.0152 -0.12336,-0.0328 -0.0633,-0.0228 -0.12141,-0.0458 -0.0581,-0.023 -0.0852,-0.0476 -0.0594,-0.0489 -0.0976,-0.0885 -0.0409,-0.042 -0.0951,-0.0912 l -0.005,-0.005 q -0.0824,-0.0944 -0.15606,-0.17107 -0.0713,-0.0794 -0.13463,-0.15658 -0.0609,-0.0799 -0.112,-0.17065 -0.0538,-0.0932 -0.0909,-0.21572 l 0.17929,-0.0943 q 0.0604,0.0696 0.1048,0.12956 0.0387,0.0499 0.0747,0.0974 0.0357,0.0423 0.0414,0.0524 0.075,0.10252 0.12776,0.17505 0.0552,0.0698 0.10015,0.14014 0.0422,0.0679 0.08,0.1515 0.0375,0.0785 0.082,0.19284 0.0329,0.089 0.0616,0.19903 0.0285,0.10481 0.0289,0.21877 0.003,0.11642 -0.0326,0.23215 -0.0358,0.11574 -0.12668,0.21606 -0.0713,0.0786 -0.167,0.0807 -0.093,0.005 -0.18809,-0.0322 -0.0978,-0.0392 -0.18352,-0.0972 -0.086,-0.0631 -0.14022,-0.11227 -0.15996,-0.14497 -0.27316,-0.28707 -0.11344,-0.14726 -0.22299,-0.32062 -0.017,-0.0302 -0.0417,-0.0575 -0.0222,-0.03 -0.0419,-0.0627 -0.009,-0.0177 -0.0274,-0.0297 -0.0163,-0.0147 -0.0298,-0.027 -0.0461,-0.0418 -0.041,-0.0964 0.008,-0.0574 0.0419,-0.0953 0.0369,-0.0407 0.0883,-0.0484 0.0512,-0.0129 0.0951,0.0368 0.0358,0.0423 0.0498,0.0649 0.0138,0.0175 0.017,0.0302 0.006,0.0101 0.009,0.0229 5.1e-4,0.0103 0.009,0.0332 0.017,0.0302 0.024,0.0662 0.007,0.0307 0.0235,0.0558 0.0957,0.15591 0.21334,0.28224 0.11759,0.12634 0.264,0.25902 0.0298,0.027 0.071,0.0742 0.0409,0.042 0.0868,0.0786 0.0456,0.0314 0.0929,0.0447 0.047,0.008 0.0839,-0.0326 0.0762,-0.0841 0.0969,-0.18869 0.0232,-0.10735 0.002,-0.22029 -0.0186,-0.11566 -0.0683,-0.22979 -0.0472,-0.11684 -0.10938,-0.22258 -0.0624,-0.11091 -0.12657,-0.20361 -0.0641,-0.0927 -0.1115,-0.16031 -0.003,-0.008 -0.0363,-0.0526 -0.0333,-0.045 -0.0696,-0.0976 l -0.0947,-0.13523 0.17683,-0.0916 q 0.0334,0.0994 0.084,0.1798 0.053,0.0777 0.11616,0.14972 0.0604,0.0696 0.12869,0.14133 0.068,0.0666 0.13658,0.14353 0.054,0.044 0.0919,0.0784 0.0352,0.0319 0.0892,0.0759 l 0.005,0.005 q 0.053,0.0233 0.132,0.0505 0.0763,0.0247 0.1337,0.0323 l 0.003,0.002 0.0103,-5.1e-4 -0.008,0.003 -0.005,2.5e-4 q -0.012,0.0187 -0.0398,0.033 0.003,0.008 0.0158,0.004 0.0128,-0.003 0.0231,-0.004 z"
                   style="font-style:normal;font-variant:normal;font-weight:normal;font-stretch:normal;font-size:6.40331173px;font-family:Hashtag;-inkscape-font-specification:Hashtag;text-align:center;text-anchor:middle;fill:#faffff;fill-opacity:1;stroke-width:0.6003105"
                   id="path916" />
                <path
                   d="m 282.66554,126.76046 q -0.12523,-0.20057 -0.14148,-0.4075 -0.0192,-0.2091 0.13213,-0.41573 0.0346,-0.0472 0.0769,-0.0616 0.0444,-0.0173 0.0877,-0.008 0.0425,0.004 0.0881,0.0283 0.0449,0.0192 0.0803,0.0452 0.16078,0.10869 0.30996,0.22702 0.14838,0.11321 0.32351,0.19612 0.0736,0.0357 0.16901,0.0603 0.0925,0.0224 0.18689,0.0235 0.0966,-0.002 0.18331,-0.0336 0.0867,-0.0317 0.14294,-0.10848 0.0108,-0.0148 0.0313,-0.0179 0.0205,-0.003 0.0181,-0.0185 -7.9e-4,-0.005 0.003,-0.0476 0.006,-0.0454 -0.002,-0.0651 -0.0106,-0.035 -4.1e-4,-0.0366 0.0124,-0.005 0.0301,0.008 0.0228,0.0122 0.0413,0.0303 0.0185,0.0181 0.0252,0.0275 0.005,0.0175 0.0201,0.0283 0.0148,0.0108 0.0201,0.0283 0.009,0.0431 0.0193,0.0913 0.013,0.0503 -0.0259,0.10349 -0.08,0.10922 -0.20232,0.16477 -0.12232,0.0555 -0.25903,0.0688 -0.13375,0.0154 -0.26792,-0.006 -0.13496,-0.0263 -0.23944,-0.0756 -0.18398,-0.0894 -0.34123,-0.2091 -0.15803,-0.12481 -0.32471,-0.23782 -0.0118,-0.009 -0.0266,-0.0195 -0.0148,-0.0108 -0.0309,-0.0136 l 0.008,0.001 q 0.004,-0.006 0.0102,-0.002 0.002,-0.003 0.0124,-0.005 0.004,-0.006 0.0145,-0.007 0.004,-0.006 0.009,-0.007 l 0.006,-0.009 q -0.0778,0.10627 -0.0825,0.21171 -0.005,0.10544 0.0346,0.20672 0.0384,0.0962 0.10751,0.1876 0.0713,0.0885 0.14095,0.16673 0.0659,0.071 0.13109,0.13683 0.0652,0.0659 0.12519,0.13251 l -0.13974,0.19699 q -0.12947,-0.0585 -0.25836,-0.13026 -0.13184,-0.0739 -0.26152,-0.15072 -0.0287,-0.0165 -0.0803,-0.0452 -0.0494,-0.0316 -0.1039,-0.0625 -0.0545,-0.0309 -0.10744,-0.0515 -0.0508,-0.0236 -0.083,-0.0291 l 0.005,-7.9e-4 q 0.005,-7.9e-4 0.007,-0.004 0.002,-0.003 0.007,-0.004 0.005,-7.9e-4 0.007,-0.004 0.002,-0.003 0.007,-0.004 0.0108,-0.0148 0.0181,-0.0185 -0.0136,0.0309 0.004,0.0936 0.0146,0.0606 0.041,0.1298 0.0256,0.0641 0.0556,0.12232 0.027,0.056 0.0412,0.08 0.0685,0.10461 0.13841,0.20115 0.0721,0.0936 0.15355,0.18049 0.0815,0.0869 0.17832,0.17142 0.0968,0.0845 0.21491,0.17101 l -0.14918,0.20369 q -0.23616,-0.17297 -0.44122,-0.31408 -0.20584,-0.14623 -0.43315,-0.31271 -0.062,-0.0454 -0.1293,-0.10831 -0.0652,-0.0658 -0.14581,-0.0796 -0.0374,-0.005 -0.0516,-0.0287 -0.0142,-0.024 -0.013,-0.0503 0.003,-0.0293 0.0265,-0.0486 0.0202,-0.0214 0.0576,-0.0167 0.11509,0.0162 0.20049,0.0607 0.0846,0.0393 0.17612,0.10631 l 0.0236,0.0173 -0.0134,-0.0189 q -0.038,-0.0596 -0.0807,-0.14984 -0.0457,-0.0924 -0.0717,-0.19313 -0.029,-0.10286 -0.0279,-0.19728 -0.002,-0.0966 0.0479,-0.16448 0.0454,-0.062 0.11562,-0.065 0.0724,-0.006 0.14952,0.0188 0.0771,0.0247 0.14934,0.0686 0.0714,0.0387 0.12003,0.0652 z"
                   style="font-style:normal;font-variant:normal;font-weight:normal;font-stretch:normal;font-size:6.40331173px;font-family:Hashtag;-inkscape-font-specification:Hashtag;text-align:center;text-anchor:middle;fill:#faffff;fill-opacity:1;stroke-width:0.6003105"
                   id="path918" />
              </g>
            </g>
          </g>
        </g>
      </g>
    </g>
  </g>
  <g
     inkscape:groupmode="layer"
     id="layer3"
     inkscape:label="stars_that_form_the_logo_pi"
     style="display:none"
     transform="translate(-157.14516,-151.26306)">
    <g
       id="g3352"
       transform="matrix(0.8221635,0,0,0.8221635,-3.2439543,93.358523)">
      <g
         transform="matrix(2.544997,0,0,2.544997,-422.65926,-124.19186)"
         id="g3362">
        <g
           id="g7094">
          <g
             id="g7250">
            <path
               style="fill:none;stroke:#fcffff;stroke-width:0.12218919;stroke-linecap:butt;stroke-linejoin:miter;stroke-miterlimit:4;stroke-dasharray:none;stroke-opacity:1"
               d="m 249.25136,92.724713 11.75239,-7.545035 -4.91549,30.096652 m 4.91549,-30.096652 13.17446,0.482413 m 5.09137,29.316149 -6.5613,-2.74834 m 0,0 1.46993,-26.567809 m 9.32811,-0.3433 -9.32811,0.3433"
               id="path3261"
               inkscape:connector-curvature="0"
               sodipodi:nodetypes="ccccccccccc" />
            <g
               id="g7232"
               transform="translate(0,11.124909)">
              <g
                 id="g3342"
                 transform="translate(-7.9686412,14.941227)">
                <circle
                   r="0.3354286"
                   cy="66.65593"
                   cx="257.22"
                   id="path3295"
                   style="fill:#ffffff;fill-opacity:1;stroke:#fcffff;stroke-width:0.02795535;stroke-miterlimit:4;stroke-dasharray:none;stroke-opacity:1" />
              </g>
              <g
                 style="display:inline"
                 id="g3342-8"
                 transform="translate(3.7837488,7.3961924)">
                <circle
                   r="0.3354286"
                   cy="66.65593"
                   cx="257.22"
                   id="path3295-6"
                   style="fill:#ffffff;fill-opacity:1;stroke:#fcffff;stroke-width:0.02795535;stroke-miterlimit:4;stroke-dasharray:none;stroke-opacity:1" />
              </g>
              <g
                 style="display:inline"
                 id="g3342-5"
                 transform="translate(-1.1317412,37.4928)">
                <circle
                   r="0.3354286"
                   cy="66.65593"
                   cx="257.22"
                   id="path3295-2"
                   style="fill:#ffffff;fill-opacity:1;stroke:#fcffff;stroke-width:0.02795535;stroke-miterlimit:4;stroke-dasharray:none;stroke-opacity:1" />
              </g>
              <g
                 style="display:inline"
                 id="g3342-57"
                 transform="translate(15.488279,34.44637)">
                <circle
                   r="0.3354286"
                   cy="66.65593"
                   cx="257.22"
                   id="path3295-1"
                   style="fill:#ffffff;fill-opacity:1;stroke:#fcffff;stroke-width:0.02795535;stroke-miterlimit:4;stroke-dasharray:none;stroke-opacity:1" />
              </g>
              <g
                 style="display:inline"
                 id="g3342-9"
                 transform="translate(22.049579,37.19471)">
                <circle
                   r="0.3354286"
                   cy="66.65593"
                   cx="257.22"
                   id="path3295-66"
                   style="fill:#ffffff;fill-opacity:1;stroke:#fcffff;stroke-width:0.02795535;stroke-miterlimit:4;stroke-dasharray:none;stroke-opacity:1" />
              </g>
              <g
                 style="display:inline"
                 id="g3342-3"
                 transform="translate(16.958209,7.8786054)">
                <circle
                   r="0.3354286"
                   cy="66.65593"
                   cx="257.22"
                   id="path3295-5"
                   style="fill:#ffffff;fill-opacity:1;stroke:#fcffff;stroke-width:0.02795535;stroke-miterlimit:4;stroke-dasharray:none;stroke-opacity:1" />
              </g>
              <g
                 style="display:inline"
                 id="g3342-54"
                 transform="translate(26.286319,7.5353054)">
                <circle
                   r="0.3354286"
                   cy="66.65593"
                   cx="257.22"
                   id="path3295-62"
                   style="fill:#ffffff;fill-opacity:1;stroke:#fcffff;stroke-width:0.02795535;stroke-miterlimit:4;stroke-dasharray:none;stroke-opacity:1" />
              </g>
            </g>
          </g>
        </g>
      </g>
    </g>
  </g>
</svg>
